sending to api....
sessions:
[]
sending to api....
sessions:
[]
sending to api....
sessions:
[ { user: '1799',
    logOnTime: 2018-06-29T06:03:22.000Z,
    logOffTime: 2018-06-29T12:05:55.000Z,
    duration: 21753000,
    lockOutCount: 1,
    totalLockOutDuration: 1067000 },
  { user: '1799',
    logOnTime: 2018-06-30T06:03:12.000Z,
    logOffTime: 2018-06-30T12:08:32.000Z,
    duration: 21920000,
    lockOutCount: 0,
    totalLockOutDuration: 0 },
  { user: '1799',
    logOnTime: 2018-07-02T06:01:36.000Z,
    logOffTime: 2018-07-02T12:06:40.000Z,
    duration: 21904000,
    lockOutCount: 1,
    totalLockOutDuration: 1251000 },
  { user: '1799',
    logOnTime: 2018-07-03T06:01:40.000Z,
    logOffTime: 2018-07-03T12:07:10.000Z,
    duration: 21930000,
    lockOutCount: 1,
    totalLockOutDuration: 1266000 },
  { user: '1799',
    logOnTime: 2018-07-04T05:59:01.000Z,
    logOffTime: 2018-07-04T12:04:45.000Z,
    duration: 21944000,
    lockOutCount: 1,
    totalLockOutDuration: 1175000 },
  { user: '1799',
    logOnTime: 2018-07-05T06:02:26.000Z,
    logOffTime: 2018-07-05T12:03:47.000Z,
    duration: 21681000,
    lockOutCount: 1,
    totalLockOutDuration: 1314000 } ]
sending to api....
sessions:
[]
sending to api....
sessions:
[ { user: '1872',
    logOnTime: 2018-06-29T06:03:33.000Z,
    logOffTime: 2018-06-29T12:06:14.000Z,
    duration: 21761000,
    lockOutCount: 4,
    totalLockOutDuration: 4798000 },
  { user: '1661',
    logOnTime: 2018-06-29T12:22:25.000Z,
    logOffTime: 2018-06-29T12:23:27.000Z,
    duration: 62000,
    lockOutCount: 0,
    totalLockOutDuration: 0 } ]
sending to api....
sessions:
[ { user: '550',
    logOnTime: 2018-06-29T05:59:12.000Z,
    logOffTime: 2018-06-29T12:03:53.000Z,
    duration: 21881000,
    lockOutCount: 1,
    totalLockOutDuration: 1139000 } ]
sending to api....
sessions:
[ { user: '1802',
    logOnTime: 2018-06-29T05:59:54.000Z,
    logOffTime: 2018-06-29T12:00:53.000Z,
    duration: 21659000,
    lockOutCount: 1,
    totalLockOutDuration: 782000 },
  { user: '1802',
    logOnTime: 2018-06-29T12:33:00.000Z,
    logOffTime: 2018-06-29T14:30:45.000Z,
    duration: 7065000,
    lockOutCount: 0,
    totalLockOutDuration: 0 } ]
sending to api....
sessions:
[ { user: '1871',
    logOnTime: 2018-06-29T06:00:13.000Z,
    logOffTime: 2018-06-29T10:30:11.000Z,
    duration: 16198000,
    lockOutCount: 1,
    totalLockOutDuration: 722000 },
  { user: '1871',
    logOnTime: 2018-06-29T11:31:36.000Z,
    logOffTime: 2018-06-29T12:05:05.000Z,
    duration: 2009000,
    lockOutCount: 0,
    totalLockOutDuration: 0 } ]
sending to api....
sessions:
[ { user: '1134',
    logOnTime: 2018-06-29T09:02:46.000Z,
    logOffTime: 2018-06-29T12:08:12.000Z,
    duration: 11126000,
    lockOutCount: 1,
    totalLockOutDuration: 173000 },
  { user: '1582',
    logOnTime: 2018-06-30T06:01:51.000Z,
    logOffTime: 2018-06-30T12:05:45.000Z,
    duration: 21834000,
    lockOutCount: 1,
    totalLockOutDuration: 727000 },
  { user: '1800',
    logOnTime: 2018-07-03T06:09:36.000Z,
    logOffTime: 2018-07-03T12:05:16.000Z,
    duration: 21340000,
    lockOutCount: 0,
    totalLockOutDuration: 0 },
  { user: '1800',
    logOnTime: 2018-07-04T05:55:53.000Z,
    logOffTime: 2018-07-04T12:05:53.000Z,
    duration: 22200000,
    lockOutCount: 1,
    totalLockOutDuration: 85000 },
  { user: '1800',
    logOnTime: 2018-07-05T05:58:34.000Z,
    logOffTime: 2018-07-05T12:04:34.000Z,
    duration: 21960000,
    lockOutCount: 1,
    totalLockOutDuration: 718000 } ]
sending to api....
sessions:
[ { user: '1868',
    logOnTime: 2018-06-29T06:05:09.000Z,
    logOffTime: 2018-06-29T12:04:34.000Z,
    duration: 21565000,
    lockOutCount: 3,
    totalLockOutDuration: 4244000 } ]
sending to api....
sessions:
[ { user: '1817',
    logOnTime: 2018-06-30T14:46:07.000Z,
    logOffTime: 2018-06-30T14:51:45.000Z,
    duration: 338000,
    lockOutCount: 0,
    totalLockOutDuration: 0 } ]
sending to api....
sessions:
[ { user: '1869',
    logOnTime: 2018-06-29T06:03:06.000Z,
    logOffTime: 2018-06-29T12:05:43.000Z,
    duration: 21757000,
    lockOutCount: 2,
    totalLockOutDuration: 1874000 } ]
sending to api....
sessions:
[ { user: '1797',
    logOnTime: 2018-06-29T06:03:38.000Z,
    logOffTime: 2018-06-29T06:07:48.000Z,
    duration: 250000,
    lockOutCount: 0,
    totalLockOutDuration: 0 } ]
sending to api....
sessions:
[ { user: '1865',
    logOnTime: 2018-06-29T05:56:26.000Z,
    logOffTime: 2018-06-29T12:05:32.000Z,
    duration: 22146000,
    lockOutCount: 1,
    totalLockOutDuration: 1622000 },
  { user: '1865',
    logOnTime: 2018-06-30T05:55:47.000Z,
    logOffTime: 2018-06-30T12:11:37.000Z,
    duration: 22550000,
    lockOutCount: 1,
    totalLockOutDuration: 1583000 },
  { user: '1137',
    logOnTime: 2018-07-03T12:51:51.000Z,
    logOffTime: 2018-07-03T13:17:41.000Z,
    duration: 1550000,
    lockOutCount: 0,
    totalLockOutDuration: 0 },
  { user: '1424',
    logOnTime: 2018-07-03T13:55:17.000Z,
    logOffTime: 2018-07-03T14:50:22.000Z,
    duration: 3305000,
    lockOutCount: 1,
    totalLockOutDuration: 1959000 } ]
sending to api....
sessions:
[ { user: '1473',
    logOnTime: 2018-06-29T06:29:44.000Z,
    logOffTime: 2018-06-29T15:01:53.000Z,
    duration: 30729000,
    lockOutCount: 3,
    totalLockOutDuration: 2449000 } ]
sending to api....
sessions:
[]
sending to api....
sessions:
[ { user: '1806',
    logOnTime: 2018-06-29T06:08:57.000Z,
    logOffTime: 2018-06-29T12:07:19.000Z,
    duration: 21502000,
    lockOutCount: 1,
    totalLockOutDuration: 56000 } ]
sending to api....
sessions:
[ { user: '1133',
    logOnTime: 2018-06-29T07:59:39.000Z,
    logOffTime: 2018-06-29T10:32:02.000Z,
    duration: 9143000,
    lockOutCount: 1,
    totalLockOutDuration: 1903000 },
  { user: '1133',
    logOnTime: 2018-06-30T08:16:17.000Z,
    logOffTime: 2018-06-30T11:58:28.000Z,
    duration: 13331000,
    lockOutCount: 2,
    totalLockOutDuration: 2075000 },
  { user: '1135',
    logOnTime: 2018-07-03T06:08:12.000Z,
    logOffTime: 2018-07-03T12:05:51.000Z,
    duration: 21459000,
    lockOutCount: 0,
    totalLockOutDuration: 0 },
  { user: '1135',
    logOnTime: 2018-07-04T06:05:51.000Z,
    logOffTime: 2018-07-04T12:04:49.000Z,
    duration: 21538000,
    lockOutCount: 1,
    totalLockOutDuration: 818000 },
  { user: '1135',
    logOnTime: 2018-07-05T06:04:32.000Z,
    logOffTime: 2018-07-05T09:48:13.000Z,
    duration: 13421000,
    lockOutCount: 1,
    totalLockOutDuration: 899000 },
  { user: '1135',
    logOnTime: 2018-07-05T09:55:32.000Z,
    logOffTime: 2018-07-05T12:05:53.000Z,
    duration: 7821000,
    lockOutCount: 0,
    totalLockOutDuration: 0 } ]
sending to api....
sessions:
[]
sending to api....
sessions:
[ { user: '1091',
    logOnTime: 2018-06-29T06:04:19.000Z,
    logOffTime: 2018-06-29T12:16:08.000Z,
    duration: 22309000,
    lockOutCount: 1,
    totalLockOutDuration: 990000 },
  { user: '1091',
    logOnTime: 2018-06-30T06:06:41.000Z,
    logOffTime: 2018-06-30T12:04:43.000Z,
    duration: 21482000,
    lockOutCount: 1,
    totalLockOutDuration: 182000 },
  { user: '1091',
    logOnTime: 2018-07-02T06:03:37.000Z,
    logOffTime: 2018-07-02T12:05:08.000Z,
    duration: 21691000,
    lockOutCount: 1,
    totalLockOutDuration: 1139000 },
  { user: '1091',
    logOnTime: 2018-07-03T06:05:40.000Z,
    logOffTime: 2018-07-03T12:03:29.000Z,
    duration: 21469000,
    lockOutCount: 0,
    totalLockOutDuration: 0 } ]
sending to api....
sessions:
[ { user: '1135',
    logOnTime: 2018-06-29T06:09:16.000Z,
    logOffTime: 2018-06-29T12:08:22.000Z,
    duration: 21546000,
    lockOutCount: 1,
    totalLockOutDuration: 1037000 },
  { user: '1135',
    logOnTime: 2018-06-30T06:02:42.000Z,
    logOffTime: 2018-06-30T12:05:51.000Z,
    duration: 21789000,
    lockOutCount: 1,
    totalLockOutDuration: 1579000 } ]
sending to api....
sessions:
[]
sending to api....
sessions:
[]
sending to api....
sessions:
[ { user: '1870',
    logOnTime: 2018-06-29T05:58:21.000Z,
    logOffTime: 2018-06-29T07:28:11.000Z,
    duration: 5390000,
    lockOutCount: 0,
    totalLockOutDuration: 0 },
  { user: '1870',
    logOnTime: 2018-06-29T07:34:09.000Z,
    logOffTime: 2018-06-29T12:05:28.000Z,
    duration: 16279000,
    lockOutCount: 3,
    totalLockOutDuration: 3845000 } ]
sending to api....
sessions:
[]
sending to api....
sessions:
[]
sending to api....
sessions:
[ { user: '1866',
    logOnTime: 2018-06-29T05:53:21.000Z,
    logOffTime: 2018-06-29T12:06:06.000Z,
    duration: 22365000,
    lockOutCount: 2,
    totalLockOutDuration: 3805000 },
  { user: '1866',
    logOnTime: 2018-06-30T05:57:38.000Z,
    logOffTime: 2018-06-30T12:11:56.000Z,
    duration: 22458000,
    lockOutCount: 0,
    totalLockOutDuration: 0 },
  { user: '1734',
    logOnTime: 2018-07-03T16:07:42.000Z,
    logOffTime: 2018-07-03T16:08:45.000Z,
    duration: 63000,
    lockOutCount: 0,
    totalLockOutDuration: 0 },
  { user: '1734',
    logOnTime: 2018-07-03T20:00:35.000Z,
    logOffTime: 2018-07-03T20:19:53.000Z,
    duration: 1158000,
    lockOutCount: 0,
    totalLockOutDuration: 0 } ]
sending to api....
sessions:
[ { user: '1873',
    logOnTime: 2018-06-29T06:05:20.000Z,
    logOffTime: 2018-06-29T12:04:58.000Z,
    duration: 21578000,
    lockOutCount: 2,
    totalLockOutDuration: 2814000 } ]
sending to api....
sessions:
[ { user: '1820',
    logOnTime: 2018-06-30T14:56:14.000Z,
    logOffTime: 2018-06-30T15:03:10.000Z,
    duration: 416000,
    lockOutCount: 0,
    totalLockOutDuration: 0 } ]
sending to api....
sessions:
[]
sending to api....
sessions:
[]
sending to api....
sessions:
[]
sending to api....
sessions:
[]
sending to api....
sessions:
[ { user: '1138',
    logOnTime: 2018-06-29T06:08:31.000Z,
    logOffTime: 2018-06-29T14:40:23.000Z,
    duration: 30712000,
    lockOutCount: 2,
    totalLockOutDuration: 2268000 } ]
sending to api....
sessions:
[ { user: '1867',
    logOnTime: 2018-06-29T05:50:20.000Z,
    logOffTime: 2018-06-29T12:06:12.000Z,
    duration: 22552000,
    lockOutCount: 1,
    totalLockOutDuration: 2491000 },
  { user: '1867',
    logOnTime: 2018-06-30T05:56:57.000Z,
    logOffTime: 2018-06-30T12:11:27.000Z,
    duration: 22470000,
    lockOutCount: 0,
    totalLockOutDuration: 0 } ]
sending to api....
sessions:
[ { user: '1862',
    logOnTime: 2018-06-29T06:02:45.000Z,
    logOffTime: 2018-06-29T07:50:26.000Z,
    duration: 6461000,
    lockOutCount: 0,
    totalLockOutDuration: 0 },
  { user: '1862',
    logOnTime: 2018-06-29T08:34:57.000Z,
    logOffTime: 2018-06-29T12:04:51.000Z,
    duration: 12594000,
    lockOutCount: 2,
    totalLockOutDuration: 3696000 },
  { user: '1862',
    logOnTime: 2018-06-30T06:07:39.000Z,
    logOffTime: 2018-06-30T12:08:51.000Z,
    duration: 21672000,
    lockOutCount: 2,
    totalLockOutDuration: 1138000 } ]
sending to api....
sessions:
[ { user: '1864',
    logOnTime: 2018-06-29T05:57:35.000Z,
    logOffTime: 2018-06-29T12:05:51.000Z,
    duration: 22096000,
    lockOutCount: 2,
    totalLockOutDuration: 3899000 },
  { user: '1864',
    logOnTime: 2018-06-30T05:56:20.000Z,
    logOffTime: 2018-06-30T12:12:14.000Z,
    duration: 22554000,
    lockOutCount: 2,
    totalLockOutDuration: 1920000 } ]
sending to api....
sessions:
[]
sending to api....
sessions:
[ { user: '1103',
    logOnTime: 2018-06-29T12:41:42.000Z,
    logOffTime: 2018-06-29T15:17:49.000Z,
    duration: 9367000,
    lockOutCount: 0,
    totalLockOutDuration: 0 } ]
sending to api....
sessions:
[]
sending to api....
sessions:
[]
sending to api....
sessions:
[]
sending to api....
sessions:
[]
sending to api....
sessions:
[ { user: '1196',
    logOnTime: 2018-06-29T09:24:47.000Z,
    logOffTime: 2018-06-29T15:40:13.000Z,
    duration: 22526000,
    lockOutCount: 0,
    totalLockOutDuration: 0 },
  { user: '1196',
    logOnTime: 2018-06-30T06:01:45.000Z,
    logOffTime: 2018-06-30T14:41:25.000Z,
    duration: 31180000,
    lockOutCount: 0,
    totalLockOutDuration: 0 },
  { user: '1196',
    logOnTime: 2018-07-02T06:01:27.000Z,
    logOffTime: 2018-07-02T14:39:59.000Z,
    duration: 31112000,
    lockOutCount: 0,
    totalLockOutDuration: 0 },
  { user: '1196',
    logOnTime: 2018-07-03T05:59:04.000Z,
    logOffTime: 2018-07-03T14:50:03.000Z,
    duration: 31859000,
    lockOutCount: 0,
    totalLockOutDuration: 0 },
  { user: '1196',
    logOnTime: 2018-07-03T15:13:17.000Z,
    logOffTime: 2018-07-03T15:23:15.000Z,
    duration: 598000,
    lockOutCount: 0,
    totalLockOutDuration: 0 } ]
sending to api....
sessions:
[]
sending to api....
sessions:
[]
sending to api....
sessions:
[]
sending to api....
sessions:
[ { user: '1844',
    logOnTime: 2018-06-29T06:03:08.000Z,
    logOffTime: 2018-06-29T12:07:32.000Z,
    duration: 21864000,
    lockOutCount: 1,
    totalLockOutDuration: 1167000 } ]
sending to api....
sessions:
[]
sending to api....
sessions:
[ { user: '1866',
    logOnTime: 2018-07-02T06:06:49.000Z,
    logOffTime: 2018-07-02T12:14:55.000Z,
    duration: 22086000,
    lockOutCount: 2,
    totalLockOutDuration: 1664000 },
  { user: '1866',
    logOnTime: 2018-07-03T05:54:45.000Z,
    logOffTime: 2018-07-03T12:10:56.000Z,
    duration: 22571000,
    lockOutCount: 2,
    totalLockOutDuration: 860000 },
  { user: '1866',
    logOnTime: 2018-07-04T05:58:46.000Z,
    logOffTime: 2018-07-04T12:05:25.000Z,
    duration: 21999000,
    lockOutCount: 1,
    totalLockOutDuration: 1121000 },
  { user: '1866',
    logOnTime: 2018-07-05T05:58:33.000Z,
    logOffTime: 2018-07-05T12:15:45.000Z,
    duration: 22632000,
    lockOutCount: 2,
    totalLockOutDuration: 1661000 } ]
sending to api....
sessions:
[]
sending to api....
sessions:
[ { user: '1847',
    logOnTime: 2018-06-29T06:06:46.000Z,
    logOffTime: 2018-06-29T09:20:30.000Z,
    duration: 11624000,
    lockOutCount: 1,
    totalLockOutDuration: 1156000 },
  { user: '1847',
    logOnTime: 2018-06-29T09:26:38.000Z,
    logOffTime: 2018-06-29T12:05:20.000Z,
    duration: 9522000,
    lockOutCount: 0,
    totalLockOutDuration: 0 },
  { user: '1847',
    logOnTime: 2018-06-30T06:03:27.000Z,
    logOffTime: 2018-06-30T12:05:07.000Z,
    duration: 21700000,
    lockOutCount: 1,
    totalLockOutDuration: 795000 },
  { user: '1847',
    logOnTime: 2018-07-02T06:05:38.000Z,
    logOffTime: 2018-07-02T12:05:14.000Z,
    duration: 21576000,
    lockOutCount: 1,
    totalLockOutDuration: 1012000 },
  { user: '1847',
    logOnTime: 2018-07-03T06:02:41.000Z,
    logOffTime: 2018-07-03T11:32:41.000Z,
    duration: 19800000,
    lockOutCount: 1,
    totalLockOutDuration: 1157000 },
  { user: '1847',
    logOnTime: 2018-07-04T06:05:50.000Z,
    logOffTime: 2018-07-04T12:05:07.000Z,
    duration: 21557000,
    lockOutCount: 1,
    totalLockOutDuration: 1196000 },
  { user: '1893',
    logOnTime: 2018-07-05T07:15:00.000Z,
    logOffTime: 2018-07-05T11:08:00.000Z,
    duration: 13980000,
    lockOutCount: 0,
    totalLockOutDuration: 0 },
  { user: '1096',
    logOnTime: 2018-07-05T13:12:35.000Z,
    logOffTime: 2018-07-05T15:01:53.000Z,
    duration: 6558000,
    lockOutCount: 0,
    totalLockOutDuration: 0 } ]
sending to api....
sessions:
[ { user: '1838',
    logOnTime: 2018-06-29T06:01:01.000Z,
    logOffTime: 2018-06-29T12:05:31.000Z,
    duration: 21870000,
    lockOutCount: 0,
    totalLockOutDuration: 0 } ]
sending to api....
sessions:
[ { user: '1765',
    logOnTime: 2018-06-29T06:04:16.000Z,
    logOffTime: 2018-06-29T12:06:11.000Z,
    duration: 21715000,
    lockOutCount: 0,
    totalLockOutDuration: 0 },
  { user: '1765',
    logOnTime: 2018-06-30T06:05:49.000Z,
    logOffTime: 2018-06-30T12:08:58.000Z,
    duration: 21789000,
    lockOutCount: 0,
    totalLockOutDuration: 0 },
  { user: '1765',
    logOnTime: 2018-07-02T06:05:32.000Z,
    logOffTime: 2018-07-02T12:05:54.000Z,
    duration: 21622000,
    lockOutCount: 1,
    totalLockOutDuration: 968000 },
  { user: '1765',
    logOnTime: 2018-07-03T06:05:48.000Z,
    logOffTime: 2018-07-03T12:14:42.000Z,
    duration: 22134000,
    lockOutCount: 1,
    totalLockOutDuration: 721000 },
  { user: '1765',
    logOnTime: 2018-07-04T06:06:22.000Z,
    logOffTime: 2018-07-04T12:05:46.000Z,
    duration: 21564000,
    lockOutCount: 1,
    totalLockOutDuration: 834000 } ]
sending to api....
sessions:
[ { user: '1843',
    logOnTime: 2018-06-29T05:59:41.000Z,
    logOffTime: 2018-06-29T12:05:16.000Z,
    duration: 21935000,
    lockOutCount: 1,
    totalLockOutDuration: 686000 },
  { user: '1888',
    logOnTime: 2018-06-29T12:40:48.000Z,
    logOffTime: 2018-06-29T14:32:03.000Z,
    duration: 6675000,
    lockOutCount: 0,
    totalLockOutDuration: 0 } ]
sending to api....
sessions:
[ { user: '1845',
    logOnTime: 2018-06-29T06:01:29.000Z,
    logOffTime: 2018-06-29T12:05:13.000Z,
    duration: 21824000,
    lockOutCount: 1,
    totalLockOutDuration: 692000 } ]
sending to api....
sessions:
[ { user: '1107',
    logOnTime: 2018-06-29T06:04:37.000Z,
    logOffTime: 2018-06-29T12:00:20.000Z,
    duration: 21343000,
    lockOutCount: 1,
    totalLockOutDuration: 839000 },
  { user: '653',
    logOnTime: 2018-06-30T17:19:36.000Z,
    logOffTime: 2018-06-30T19:46:05.000Z,
    duration: 8789000,
    lockOutCount: 0,
    totalLockOutDuration: 0 },
  { user: '1867',
    logOnTime: 2018-07-02T06:00:36.000Z,
    logOffTime: 2018-07-02T12:08:34.000Z,
    duration: 22078000,
    lockOutCount: 0,
    totalLockOutDuration: 0 },
  { user: '1867',
    logOnTime: 2018-07-03T05:51:27.000Z,
    logOffTime: 2018-07-03T12:04:20.000Z,
    duration: 22373000,
    lockOutCount: 1,
    totalLockOutDuration: 1261000 },
  { user: '1867',
    logOnTime: 2018-07-04T05:49:15.000Z,
    logOffTime: 2018-07-04T12:04:26.000Z,
    duration: 22511000,
    lockOutCount: 1,
    totalLockOutDuration: 675000 },
  { user: '1867',
    logOnTime: 2018-07-05T05:50:40.000Z,
    logOffTime: 2018-07-05T12:12:45.000Z,
    duration: 22925000,
    lockOutCount: 0,
    totalLockOutDuration: 0 } ]
sending to api....
sessions:
[ { user: '1127',
    logOnTime: 2018-06-29T06:08:38.000Z,
    logOffTime: 2018-06-29T12:05:45.000Z,
    duration: 21427000,
    lockOutCount: 1,
    totalLockOutDuration: 1262000 },
  { user: '1047',
    logOnTime: 2018-06-29T14:38:17.000Z,
    logOffTime: 2018-06-29T16:34:43.000Z,
    duration: 6986000,
    lockOutCount: 0,
    totalLockOutDuration: 0 },
  { user: '1127',
    logOnTime: 2018-06-30T06:08:12.000Z,
    logOffTime: 2018-06-30T12:08:13.000Z,
    duration: 21601000,
    lockOutCount: 1,
    totalLockOutDuration: 551000 },
  { user: '1633',
    logOnTime: 2018-06-30T12:39:55.000Z,
    logOffTime: 2018-06-30T14:31:39.000Z,
    duration: 6704000,
    lockOutCount: 0,
    totalLockOutDuration: 0 },
  { user: '1127',
    logOnTime: 2018-07-02T06:08:01.000Z,
    logOffTime: 2018-07-02T12:05:06.000Z,
    duration: 21425000,
    lockOutCount: 1,
    totalLockOutDuration: 459000 },
  { user: '1127',
    logOnTime: 2018-07-03T06:07:21.000Z,
    logOffTime: 2018-07-03T12:05:20.000Z,
    duration: 21479000,
    lockOutCount: 1,
    totalLockOutDuration: 580000 },
  { user: '1127',
    logOnTime: 2018-07-04T06:09:42.000Z,
    logOffTime: 2018-07-04T12:05:14.000Z,
    duration: 21332000,
    lockOutCount: 1,
    totalLockOutDuration: 517000 },
  { user: '1127',
    logOnTime: 2018-07-05T06:08:28.000Z,
    logOffTime: 2018-07-05T12:05:34.000Z,
    duration: 21426000,
    lockOutCount: 1,
    totalLockOutDuration: 1216000 } ]
sending to api....
sessions:
[ { user: '1732',
    logOnTime: 2018-06-29T09:25:51.000Z,
    logOffTime: 2018-06-29T11:48:21.000Z,
    duration: 8550000,
    lockOutCount: 0,
    totalLockOutDuration: 0 } ]
sending to api....
sessions:
[ { user: '1841',
    logOnTime: 2018-06-29T06:05:19.000Z,
    logOffTime: 2018-06-29T12:06:39.000Z,
    duration: 21680000,
    lockOutCount: 1,
    totalLockOutDuration: 692000 } ]
sending to api....
sessions:
[ { user: '1881',
    logOnTime: 2018-06-29T05:53:25.000Z,
    logOffTime: 2018-06-29T12:05:51.000Z,
    duration: 22346000,
    lockOutCount: 1,
    totalLockOutDuration: 489000 } ]
sending to api....
sessions:
[ { user: '1762',
    logOnTime: 2018-06-29T06:05:29.000Z,
    logOffTime: 2018-06-29T12:07:25.000Z,
    duration: 21716000,
    lockOutCount: 0,
    totalLockOutDuration: 0 },
  { user: '1845',
    logOnTime: 2018-06-30T06:04:11.000Z,
    logOffTime: 2018-06-30T12:05:32.000Z,
    duration: 21681000,
    lockOutCount: 1,
    totalLockOutDuration: 1211000 },
  { user: '1845',
    logOnTime: 2018-07-02T06:04:32.000Z,
    logOffTime: 2018-07-02T12:05:09.000Z,
    duration: 21637000,
    lockOutCount: 2,
    totalLockOutDuration: 1182000 },
  { user: '1845',
    logOnTime: 2018-07-03T06:03:41.000Z,
    logOffTime: 2018-07-03T12:06:00.000Z,
    duration: 21739000,
    lockOutCount: 2,
    totalLockOutDuration: 1451000 },
  { user: '1845',
    logOnTime: 2018-07-04T05:57:48.000Z,
    logOffTime: 2018-07-04T12:05:27.000Z,
    duration: 22059000,
    lockOutCount: 1,
    totalLockOutDuration: 1138000 },
  { user: '1643',
    logOnTime: 2018-07-04T14:34:18.000Z,
    logOffTime: 2018-07-04T16:29:54.000Z,
    duration: 6936000,
    lockOutCount: 0,
    totalLockOutDuration: 0 },
  { user: '1845',
    logOnTime: 2018-07-05T06:07:47.000Z,
    logOffTime: 2018-07-05T12:06:11.000Z,
    duration: 21504000,
    lockOutCount: 1,
    totalLockOutDuration: 1085000 } ]
sending to api....
sessions:
[]
sending to api....
sessions:
[]
sending to api....
sessions:
[]
sending to api....
sessions:
[ { user: '1064',
    logOnTime: 2018-06-29T06:10:38.000Z,
    logOffTime: 2018-06-29T14:31:40.000Z,
    duration: 30062000,
    lockOutCount: 2,
    totalLockOutDuration: 1675000 } ]
sending to api....
sessions:
[ { user: '1767',
    logOnTime: 2018-06-29T06:04:58.000Z,
    logOffTime: 2018-06-29T12:10:23.000Z,
    duration: 21925000,
    lockOutCount: 0,
    totalLockOutDuration: 0 } ]
sending to api....
sessions:
[ { user: '1832',
    logOnTime: 2018-06-29T05:54:29.000Z,
    logOffTime: 2018-06-29T12:05:57.000Z,
    duration: 22288000,
    lockOutCount: 1,
    totalLockOutDuration: 871000 },
  { user: '1832',
    logOnTime: 2018-06-30T05:50:41.000Z,
    logOffTime: 2018-06-30T12:05:38.000Z,
    duration: 22497000,
    lockOutCount: 1,
    totalLockOutDuration: 34000 },
  { user: '1832',
    logOnTime: 2018-07-02T05:52:12.000Z,
    logOffTime: 2018-07-02T12:05:43.000Z,
    duration: 22411000,
    lockOutCount: 1,
    totalLockOutDuration: 841000 },
  { user: '1832',
    logOnTime: 2018-07-03T05:53:56.000Z,
    logOffTime: 2018-07-03T12:04:05.000Z,
    duration: 22209000,
    lockOutCount: 1,
    totalLockOutDuration: 828000 },
  { user: '1832',
    logOnTime: 2018-07-04T05:53:42.000Z,
    logOffTime: 2018-07-04T12:06:09.000Z,
    duration: 22347000,
    lockOutCount: 1,
    totalLockOutDuration: 776000 },
  { user: '1832',
    logOnTime: 2018-07-05T05:44:22.000Z,
    logOffTime: 2018-07-05T12:05:37.000Z,
    duration: 22875000,
    lockOutCount: 1,
    totalLockOutDuration: 775000 } ]
sending to api....
sessions:
[]
sending to api....
sessions:
[ { user: '1643',
    logOnTime: 2018-06-29T06:04:29.000Z,
    logOffTime: 2018-06-29T14:32:24.000Z,
    duration: 30475000,
    lockOutCount: 1,
    totalLockOutDuration: 818000 } ]
sending to api....
sessions:
[ { user: '1654',
    logOnTime: 2018-06-30T06:01:25.000Z,
    logOffTime: 2018-06-30T14:30:29.000Z,
    duration: 30544000,
    lockOutCount: 0,
    totalLockOutDuration: 0 } ]
sending to api....
sessions:
[ { user: '1756',
    logOnTime: 2018-06-29T06:04:36.000Z,
    logOffTime: 2018-06-29T12:11:06.000Z,
    duration: 21990000,
    lockOutCount: 1,
    totalLockOutDuration: 1594000 } ]
sending to api....
sessions:
[ { user: '1758',
    logOnTime: 2018-06-29T06:06:39.000Z,
    logOffTime: 2018-06-29T12:05:53.000Z,
    duration: 21554000,
    lockOutCount: 1,
    totalLockOutDuration: 1197000 } ]
sending to api....
sessions:
[ { user: '1872',
    logOnTime: 2018-07-02T06:10:35.000Z,
    logOffTime: 2018-07-02T12:15:55.000Z,
    duration: 21920000,
    lockOutCount: 1,
    totalLockOutDuration: 348000 },
  { user: '1872',
    logOnTime: 2018-07-03T06:13:35.000Z,
    logOffTime: 2018-07-03T12:03:47.000Z,
    duration: 21012000,
    lockOutCount: 1,
    totalLockOutDuration: 648000 },
  { user: '1872',
    logOnTime: 2018-07-04T06:08:09.000Z,
    logOffTime: 2018-07-04T06:46:24.000Z,
    duration: 2295000,
    lockOutCount: 0,
    totalLockOutDuration: 0 },
  { user: '1872',
    logOnTime: 2018-07-04T06:52:14.000Z,
    logOffTime: 2018-07-04T12:06:08.000Z,
    duration: 18834000,
    lockOutCount: 1,
    totalLockOutDuration: 506000 },
  { user: '1872',
    logOnTime: 2018-07-05T06:08:15.000Z,
    logOffTime: 2018-07-05T12:08:02.000Z,
    duration: 21587000,
    lockOutCount: 1,
    totalLockOutDuration: 798000 } ]
sending to api....
sessions:
[ { user: '1435',
    logOnTime: 2018-07-02T06:00:37.000Z,
    logOffTime: 2018-07-02T14:36:39.000Z,
    duration: 30962000,
    lockOutCount: 0,
    totalLockOutDuration: 0 },
  { user: '1435',
    logOnTime: 2018-07-03T06:05:28.000Z,
    logOffTime: 2018-07-03T14:35:46.000Z,
    duration: 30618000,
    lockOutCount: 1,
    totalLockOutDuration: 693000 },
  { user: '1435',
    logOnTime: 2018-07-04T06:06:13.000Z,
    logOffTime: 2018-07-04T14:39:36.000Z,
    duration: 30803000,
    lockOutCount: 3,
    totalLockOutDuration: 4875000 } ]
sending to api....
sessions:
[ { user: '1389',
    logOnTime: 2018-07-02T10:14:16.000Z,
    logOffTime: 2018-07-02T14:31:01.000Z,
    duration: 15405000,
    lockOutCount: 0,
    totalLockOutDuration: 0 } ]
sending to api....
sessions:
[ { user: '1064',
    logOnTime: 2018-06-29T14:39:32.000Z,
    logOffTime: 2018-06-29T16:33:20.000Z,
    duration: 6828000,
    lockOutCount: 0,
    totalLockOutDuration: 0 },
  { user: '1425',
    logOnTime: 2018-07-02T06:00:36.000Z,
    logOffTime: 2018-07-02T14:36:18.000Z,
    duration: 30942000,
    lockOutCount: 0,
    totalLockOutDuration: 0 } ]
sending to api....
sessions:
[ { user: '1846',
    logOnTime: 2018-06-29T05:56:34.000Z,
    logOffTime: 2018-06-29T12:06:38.000Z,
    duration: 22204000,
    lockOutCount: 1,
    totalLockOutDuration: 1109000 } ]
sending to api....
sessions:
[ { user: '1133',
    logOnTime: 2018-06-29T13:08:22.000Z,
    logOffTime: 2018-06-29T16:26:27.000Z,
    duration: 11885000,
    lockOutCount: 0,
    totalLockOutDuration: 0 } ]
sending to api....
sessions:
[ { user: '1833',
    logOnTime: 2018-06-29T06:00:27.000Z,
    logOffTime: 2018-06-29T12:06:49.000Z,
    duration: 21982000,
    lockOutCount: 1,
    totalLockOutDuration: 691000 },
  { user: '1833',
    logOnTime: 2018-06-30T06:01:45.000Z,
    logOffTime: 2018-06-30T12:05:59.000Z,
    duration: 21854000,
    lockOutCount: 0,
    totalLockOutDuration: 0 },
  { user: '1833',
    logOnTime: 2018-07-02T06:01:46.000Z,
    logOffTime: 2018-07-02T12:05:54.000Z,
    duration: 21848000,
    lockOutCount: 1,
    totalLockOutDuration: 842000 },
  { user: '1833',
    logOnTime: 2018-07-03T06:00:47.000Z,
    logOffTime: 2018-07-03T12:05:19.000Z,
    duration: 21872000,
    lockOutCount: 1,
    totalLockOutDuration: 826000 },
  { user: '1833',
    logOnTime: 2018-07-04T06:01:51.000Z,
    logOffTime: 2018-07-04T12:24:04.000Z,
    duration: 22933000,
    lockOutCount: 1,
    totalLockOutDuration: 791000 } ]
sending to api....
sessions:
[ { user: '1766',
    logOnTime: 2018-06-29T06:09:09.000Z,
    logOffTime: 2018-06-29T12:06:37.000Z,
    duration: 21448000,
    lockOutCount: 1,
    totalLockOutDuration: 441000 },
  { user: '1766',
    logOnTime: 2018-06-30T06:07:31.000Z,
    logOffTime: 2018-06-30T12:10:34.000Z,
    duration: 21783000,
    lockOutCount: 1,
    totalLockOutDuration: 931000 },
  { user: '1766',
    logOnTime: 2018-07-02T06:13:09.000Z,
    logOffTime: 2018-07-02T12:10:44.000Z,
    duration: 21455000,
    lockOutCount: 1,
    totalLockOutDuration: 138000 } ]
sending to api....
sessions:
[]
sending to api....
sessions:
[]
sending to api....
sessions:
[]
sending to api....
sessions:
[ { user: '1837',
    logOnTime: 2018-06-29T06:01:51.000Z,
    logOffTime: 2018-06-29T12:05:13.000Z,
    duration: 21802000,
    lockOutCount: 1,
    totalLockOutDuration: 1170000 } ]
sending to api....
sessions:
[ { user: '1836',
    logOnTime: 2018-06-29T06:06:42.000Z,
    logOffTime: 2018-06-29T12:12:28.000Z,
    duration: 21946000,
    lockOutCount: 1,
    totalLockOutDuration: 984000 },
  { user: '1836',
    logOnTime: 2018-06-30T06:09:50.000Z,
    logOffTime: 2018-06-30T12:11:38.000Z,
    duration: 21708000,
    lockOutCount: 1,
    totalLockOutDuration: 368000 },
  { user: '1836',
    logOnTime: 2018-07-02T06:12:00.000Z,
    logOffTime: 2018-07-02T12:09:47.000Z,
    duration: 21467000,
    lockOutCount: 1,
    totalLockOutDuration: 769000 },
  { user: '1836',
    logOnTime: 2018-07-03T06:12:57.000Z,
    logOffTime: 2018-07-03T12:07:37.000Z,
    duration: 21280000,
    lockOutCount: 1,
    totalLockOutDuration: 924000 },
  { user: '1836',
    logOnTime: 2018-07-04T06:05:04.000Z,
    logOffTime: 2018-07-04T12:09:16.000Z,
    duration: 21852000,
    lockOutCount: 1,
    totalLockOutDuration: 672000 },
  { user: '1836',
    logOnTime: 2018-07-05T06:09:41.000Z,
    logOffTime: 2018-07-05T12:05:17.000Z,
    duration: 21336000,
    lockOutCount: 1,
    totalLockOutDuration: 667000 } ]
sending to api....
sessions:
[ { user: '1889',
    logOnTime: 2018-06-29T05:55:24.000Z,
    logOffTime: 2018-06-29T12:07:20.000Z,
    duration: 22316000,
    lockOutCount: 1,
    totalLockOutDuration: 429000 } ]
sending to api....
sessions:
[ { user: '1863',
    logOnTime: 2018-07-02T05:59:17.000Z,
    logOffTime: 2018-07-02T12:41:41.000Z,
    duration: 24144000,
    lockOutCount: 0,
    totalLockOutDuration: 0 },
  { user: '1863',
    logOnTime: 2018-07-03T06:04:29.000Z,
    logOffTime: 2018-07-03T12:36:23.000Z,
    duration: 23514000,
    lockOutCount: 0,
    totalLockOutDuration: 0 },
  { user: '1863',
    logOnTime: 2018-07-04T06:03:20.000Z,
    logOffTime: 2018-07-04T12:29:54.000Z,
    duration: 23194000,
    lockOutCount: 0,
    totalLockOutDuration: 0 },
  { user: '1863',
    logOnTime: 2018-07-05T06:08:14.000Z,
    logOffTime: 2018-07-05T12:28:01.000Z,
    duration: 22787000,
    lockOutCount: 0,
    totalLockOutDuration: 0 } ]
sending to api....
sessions:
[ { user: '1849',
    logOnTime: 2018-06-29T06:02:50.000Z,
    logOffTime: 2018-06-29T12:08:44.000Z,
    duration: 21954000,
    lockOutCount: 1,
    totalLockOutDuration: 478000 } ]
sending to api....
sessions:
[ { user: '1643',
    logOnTime: 2018-06-29T14:42:00.000Z,
    logOffTime: 2018-06-29T16:24:39.000Z,
    duration: 6159000,
    lockOutCount: 0,
    totalLockOutDuration: 0 },
  { user: '638',
    logOnTime: 2018-06-30T19:20:18.000Z,
    logOffTime: 2018-06-30T19:49:11.000Z,
    duration: 1733000,
    lockOutCount: 1,
    totalLockOutDuration: 147000 } ]
sending to api....
sessions:
[ { user: '1649',
    logOnTime: 2018-06-29T07:22:49.000Z,
    logOffTime: 2018-06-29T11:22:13.000Z,
    duration: 14364000,
    lockOutCount: 0,
    totalLockOutDuration: 0 },
  { user: '1880',
    logOnTime: 2018-06-29T12:31:25.000Z,
    logOffTime: 2018-06-29T14:25:18.000Z,
    duration: 6833000,
    lockOutCount: 0,
    totalLockOutDuration: 0 } ]
sending to api....
sessions:
[ { user: '638',
    logOnTime: 2018-06-29T08:53:33.000Z,
    logOffTime: 2018-06-29T11:45:08.000Z,
    duration: 10295000,
    lockOutCount: 1,
    totalLockOutDuration: 6406000 },
  { user: '638',
    logOnTime: 2018-06-30T09:12:05.000Z,
    logOffTime: 2018-06-30T12:25:48.000Z,
    duration: 11623000,
    lockOutCount: 2,
    totalLockOutDuration: 2216000 } ]
sending to api....
sessions:
[]
sending to api....
sessions:
[]
sending to api....
sessions:
[]
sending to api....
sessions:
[ { user: '1733',
    logOnTime: 2018-06-29T09:43:57.000Z,
    logOffTime: 2018-06-29T11:47:11.000Z,
    duration: 7394000,
    lockOutCount: 0,
    totalLockOutDuration: 0 },
  { user: '1733',
    logOnTime: 2018-06-30T06:03:47.000Z,
    logOffTime: 2018-06-30T12:01:37.000Z,
    duration: 21470000,
    lockOutCount: 1,
    totalLockOutDuration: 271000 },
  { user: '1869',
    logOnTime: 2018-07-02T06:08:42.000Z,
    logOffTime: 2018-07-02T12:16:26.000Z,
    duration: 22064000,
    lockOutCount: 0,
    totalLockOutDuration: 0 },
  { user: '1869',
    logOnTime: 2018-07-04T06:05:35.000Z,
    logOffTime: 2018-07-04T12:04:16.000Z,
    duration: 21521000,
    lockOutCount: 1,
    totalLockOutDuration: 774000 },
  { user: '1869',
    logOnTime: 2018-07-05T06:04:54.000Z,
    logOffTime: 2018-07-05T12:12:27.000Z,
    duration: 22053000,
    lockOutCount: 1,
    totalLockOutDuration: 96000 },
  { user: '1643',
    logOnTime: 2018-07-05T14:40:25.000Z,
    logOffTime: 2018-07-05T16:28:27.000Z,
    duration: 6482000,
    lockOutCount: 0,
    totalLockOutDuration: 0 } ]
sending to api....
sessions:
[ { user: '1852',
    logOnTime: 2018-06-29T06:09:17.000Z,
    logOffTime: 2018-06-29T12:06:45.000Z,
    duration: 21448000,
    lockOutCount: 1,
    totalLockOutDuration: 983000 } ]
sending to api....
sessions:
[ { user: '1254',
    logOnTime: 2018-06-29T06:09:40.000Z,
    logOffTime: 2018-06-29T12:01:08.000Z,
    duration: 21088000,
    lockOutCount: 2,
    totalLockOutDuration: 3843000 },
  { user: '1254',
    logOnTime: 2018-06-30T06:06:05.000Z,
    logOffTime: 2018-06-30T09:27:27.000Z,
    duration: 12082000,
    lockOutCount: 1,
    totalLockOutDuration: 9301000 },
  { user: '1254',
    logOnTime: 2018-07-02T06:01:13.000Z,
    logOffTime: 2018-07-02T12:16:49.000Z,
    duration: 22536000,
    lockOutCount: 4,
    totalLockOutDuration: 16084000 },
  { user: '1254',
    logOnTime: 2018-07-03T06:10:50.000Z,
    logOffTime: 2018-07-03T12:11:44.000Z,
    duration: 21654000,
    lockOutCount: 2,
    totalLockOutDuration: 19180000 },
  { user: '1254',
    logOnTime: 2018-07-04T06:04:14.000Z,
    logOffTime: 2018-07-04T12:09:20.000Z,
    duration: 21906000,
    lockOutCount: 5,
    totalLockOutDuration: 14317000 },
  { user: '1648',
    logOnTime: 2018-07-05T14:38:17.000Z,
    logOffTime: 2018-07-05T16:29:40.000Z,
    duration: 6683000,
    lockOutCount: 0,
    totalLockOutDuration: 0 } ]
sending to api....
sessions:
[]
sending to api....
sessions:
[ { user: '1635',
    logOnTime: 2018-06-29T06:09:51.000Z,
    logOffTime: 2018-06-29T14:31:31.000Z,
    duration: 30100000,
    lockOutCount: 2,
    totalLockOutDuration: 1172000 } ]
sending to api....
sessions:
[ { user: '1648',
    logOnTime: 2018-06-29T06:02:52.000Z,
    logOffTime: 2018-06-29T14:30:22.000Z,
    duration: 30450000,
    lockOutCount: 2,
    totalLockOutDuration: 2101000 } ]
sending to api....
sessions:
[]
sending to api....
sessions:
[ { user: '1107',
    logOnTime: 2018-06-30T07:06:53.000Z,
    logOffTime: 2018-06-30T14:27:41.000Z,
    duration: 26448000,
    lockOutCount: 0,
    totalLockOutDuration: 0 },
  { user: '1873',
    logOnTime: 2018-07-02T06:11:21.000Z,
    logOffTime: 2018-07-02T12:14:00.000Z,
    duration: 21759000,
    lockOutCount: 0,
    totalLockOutDuration: 0 },
  { user: '1873',
    logOnTime: 2018-07-03T08:34:04.000Z,
    logOffTime: 2018-07-03T12:15:47.000Z,
    duration: 13303000,
    lockOutCount: 0,
    totalLockOutDuration: 0 },
  { user: '1873',
    logOnTime: 2018-07-04T06:05:06.000Z,
    logOffTime: 2018-07-04T12:04:25.000Z,
    duration: 21559000,
    lockOutCount: 1,
    totalLockOutDuration: 65000 },
  { user: '1873',
    logOnTime: 2018-07-05T06:06:11.000Z,
    logOffTime: 2018-07-05T12:10:26.000Z,
    duration: 21855000,
    lockOutCount: 1,
    totalLockOutDuration: 364000 } ]
sending to api....
sessions:
[ { user: '1886',
    logOnTime: 2018-06-29T12:19:21.000Z,
    logOffTime: 2018-06-29T13:45:08.000Z,
    duration: 5147000,
    lockOutCount: 0,
    totalLockOutDuration: 0 },
  { user: '1886',
    logOnTime: 2018-06-29T13:50:56.000Z,
    logOffTime: 2018-06-29T14:18:09.000Z,
    duration: 1633000,
    lockOutCount: 0,
    totalLockOutDuration: 0 } ]
sending to api....
sessions:
[ { user: '1736',
    logOnTime: 2018-06-29T05:59:54.000Z,
    logOffTime: 2018-06-29T11:59:33.000Z,
    duration: 21579000,
    lockOutCount: 1,
    totalLockOutDuration: 693000 } ]
sending to api....
sessions:
[ { user: '1332',
    logOnTime: 2018-06-29T06:10:23.000Z,
    logOffTime: 2018-06-29T12:05:48.000Z,
    duration: 21325000,
    lockOutCount: 5,
    totalLockOutDuration: 10030000 },
  { user: '1332',
    logOnTime: 2018-06-30T06:12:40.000Z,
    logOffTime: 2018-06-30T12:04:38.000Z,
    duration: 21118000,
    lockOutCount: 2,
    totalLockOutDuration: 2208000 },
  { user: '1332',
    logOnTime: 2018-07-02T06:11:26.000Z,
    logOffTime: 2018-07-02T12:05:31.000Z,
    duration: 21245000,
    lockOutCount: 7,
    totalLockOutDuration: 11651000 },
  { user: '1332',
    logOnTime: 2018-07-03T06:08:09.000Z,
    logOffTime: 2018-07-03T12:06:25.000Z,
    duration: 21496000,
    lockOutCount: 6,
    totalLockOutDuration: 4756000 },
  { user: '1332',
    logOnTime: 2018-07-04T06:11:02.000Z,
    logOffTime: 2018-07-04T12:06:45.000Z,
    duration: 21343000,
    lockOutCount: 4,
    totalLockOutDuration: 6966000 },
  { user: '1332',
    logOnTime: 2018-07-05T06:09:32.000Z,
    logOffTime: 2018-07-05T12:12:12.000Z,
    duration: 21760000,
    lockOutCount: 2,
    totalLockOutDuration: 2313000 } ]
sending to api....
sessions:
[]
sending to api....
sessions:
[ { user: '1850',
    logOnTime: 2018-06-29T06:03:25.000Z,
    logOffTime: 2018-06-29T12:07:20.000Z,
    duration: 21835000,
    lockOutCount: 1,
    totalLockOutDuration: 800000 } ]
sending to api....
sessions:
[ { user: '1761',
    logOnTime: 2018-06-29T06:05:24.000Z,
    logOffTime: 2018-06-29T12:11:54.000Z,
    duration: 21990000,
    lockOutCount: 1,
    totalLockOutDuration: 811000 } ]
sending to api....
sessions:
[ { user: '1834',
    logOnTime: 2018-06-29T06:07:44.000Z,
    logOffTime: 2018-06-29T12:05:14.000Z,
    duration: 21450000,
    lockOutCount: 2,
    totalLockOutDuration: 1688000 },
  { user: '1834',
    logOnTime: 2018-06-30T06:09:50.000Z,
    logOffTime: 2018-06-30T12:12:36.000Z,
    duration: 21766000,
    lockOutCount: 2,
    totalLockOutDuration: 2126000 },
  { user: '1834',
    logOnTime: 2018-07-02T06:06:39.000Z,
    logOffTime: 2018-07-02T12:06:19.000Z,
    duration: 21580000,
    lockOutCount: 2,
    totalLockOutDuration: 1519000 },
  { user: '1834',
    logOnTime: 2018-07-03T06:02:33.000Z,
    logOffTime: 2018-07-03T12:05:47.000Z,
    duration: 21794000,
    lockOutCount: 2,
    totalLockOutDuration: 1581000 },
  { user: '1834',
    logOnTime: 2018-07-04T06:02:12.000Z,
    logOffTime: 2018-07-04T12:04:45.000Z,
    duration: 21753000,
    lockOutCount: 0,
    totalLockOutDuration: 0 },
  { user: '1834',
    logOnTime: 2018-07-05T06:07:58.000Z,
    logOffTime: 2018-07-05T12:07:20.000Z,
    duration: 21562000,
    lockOutCount: 2,
    totalLockOutDuration: 1681000 } ]
sending to api....
sessions:
[]
sending to api....
sessions:
[]
sending to api....
sessions:
[ { user: '1877',
    logOnTime: 2018-06-29T12:19:03.000Z,
    logOffTime: 2018-06-29T14:19:13.000Z,
    duration: 7210000,
    lockOutCount: 0,
    totalLockOutDuration: 0 } ]
sending to api....
sessions:
[]
sending to api....
sessions:
[]
sending to api....
sessions:
[ { user: '1107',
    logOnTime: 2018-06-29T06:37:05.000Z,
    logOffTime: 2018-06-29T16:59:07.000Z,
    duration: 37322000,
    lockOutCount: 2,
    totalLockOutDuration: 1498000 },
  { user: '1107',
    logOnTime: 2018-06-29T17:05:21.000Z,
    logOffTime: 2018-06-29T18:34:32.000Z,
    duration: 5351000,
    lockOutCount: 0,
    totalLockOutDuration: 0 },
  { user: '1107',
    logOnTime: 2018-06-30T06:02:52.000Z,
    logOffTime: 2018-06-30T15:01:37.000Z,
    duration: 32325000,
    lockOutCount: 4,
    totalLockOutDuration: 3477000 },
  { user: '1107',
    logOnTime: 2018-07-02T08:26:56.000Z,
    logOffTime: 2018-07-02T16:50:09.000Z,
    duration: 30193000,
    lockOutCount: 1,
    totalLockOutDuration: 1828000 },
  { user: '1107',
    logOnTime: 2018-07-03T08:08:16.000Z,
    logOffTime: 2018-07-03T16:46:21.000Z,
    duration: 31085000,
    lockOutCount: 1,
    totalLockOutDuration: 1770000 } ]
sending to api....
sessions:
[ { user: '1633',
    logOnTime: 2018-06-29T06:04:21.000Z,
    logOffTime: 2018-06-29T07:08:57.000Z,
    duration: 3876000,
    lockOutCount: 0,
    totalLockOutDuration: 0 },
  { user: '1633',
    logOnTime: 2018-06-29T07:14:38.000Z,
    logOffTime: 2018-06-29T09:00:31.000Z,
    duration: 6353000,
    lockOutCount: 1,
    totalLockOutDuration: 1026000 },
  { user: '1633',
    logOnTime: 2018-06-29T09:06:06.000Z,
    logOffTime: 2018-06-29T12:06:41.000Z,
    duration: 10835000,
    lockOutCount: 0,
    totalLockOutDuration: 0 } ]
sending to api....
sessions:
[]
sending to api....
sessions:
[ { user: '1848',
    logOnTime: 2018-06-29T05:59:48.000Z,
    logOffTime: 2018-06-29T12:07:01.000Z,
    duration: 22033000,
    lockOutCount: 1,
    totalLockOutDuration: 871000 } ]
sending to api....
sessions:
[ { user: '1181',
    logOnTime: 2018-06-30T13:47:06.000Z,
    logOffTime: 2018-06-30T16:40:44.000Z,
    duration: 10418000,
    lockOutCount: 1,
    totalLockOutDuration: 3595000 },
  { user: '1231',
    logOnTime: 2018-07-02T06:36:13.000Z,
    logOffTime: 2018-07-02T14:29:12.000Z,
    duration: 28379000,
    lockOutCount: 4,
    totalLockOutDuration: 3684000 } ]
sending to api....
sessions:
[ { user: '1652',
    logOnTime: 2018-06-29T06:05:58.000Z,
    logOffTime: 2018-06-29T16:04:04.000Z,
    duration: 35886000,
    lockOutCount: 4,
    totalLockOutDuration: 4082000 },
  { user: '1652',
    logOnTime: 2018-06-30T05:54:37.000Z,
    logOffTime: 2018-06-30T16:13:20.000Z,
    duration: 37123000,
    lockOutCount: 4,
    totalLockOutDuration: 2644000 },
  { user: '1107',
    logOnTime: 2018-07-02T08:36:08.000Z,
    logOffTime: 2018-07-02T11:22:47.000Z,
    duration: 9999000,
    lockOutCount: 0,
    totalLockOutDuration: 0 },
  { user: '1635',
    logOnTime: 2018-07-02T14:43:16.000Z,
    logOffTime: 2018-07-02T16:10:17.000Z,
    duration: 5221000,
    lockOutCount: 0,
    totalLockOutDuration: 0 } ]
sending to api....
sessions:
[ { user: '1357',
    logOnTime: 2018-06-29T06:12:07.000Z,
    logOffTime: 2018-06-29T14:29:49.000Z,
    duration: 29862000,
    lockOutCount: 4,
    totalLockOutDuration: 2899000 } ]
sending to api....
sessions:
[ { user: '1712',
    logOnTime: 2018-06-29T05:59:07.000Z,
    logOffTime: 2018-06-29T14:30:43.000Z,
    duration: 30696000,
    lockOutCount: 0,
    totalLockOutDuration: 0 },
  { user: '1712',
    logOnTime: 2018-06-30T06:14:06.000Z,
    logOffTime: 2018-06-30T06:56:53.000Z,
    duration: 2567000,
    lockOutCount: 0,
    totalLockOutDuration: 0 } ]
sending to api....
sessions:
[ { user: '1720',
    logOnTime: 2018-06-30T08:41:51.000Z,
    logOffTime: 2018-06-30T08:49:15.000Z,
    duration: 444000,
    lockOutCount: 0,
    totalLockOutDuration: 0 },
  { user: '1720',
    logOnTime: 2018-06-30T08:58:03.000Z,
    logOffTime: 2018-06-30T11:30:40.000Z,
    duration: 9157000,
    lockOutCount: 0,
    totalLockOutDuration: 0 },
  { user: '1746',
    logOnTime: 2018-07-03T06:04:43.000Z,
    logOffTime: 2018-07-03T14:35:11.000Z,
    duration: 30628000,
    lockOutCount: 0,
    totalLockOutDuration: 0 },
  { user: '1746',
    logOnTime: 2018-07-04T06:05:09.000Z,
    logOffTime: 2018-07-04T14:28:37.000Z,
    duration: 30208000,
    lockOutCount: 0,
    totalLockOutDuration: 0 },
  { user: '1746',
    logOnTime: 2018-07-05T06:08:19.000Z,
    logOffTime: 2018-07-05T14:28:10.000Z,
    duration: 29991000,
    lockOutCount: 0,
    totalLockOutDuration: 0 } ]
sending to api....
sessions:
[ { user: '1851',
    logOnTime: 2018-06-29T05:56:57.000Z,
    logOffTime: 2018-06-29T12:05:52.000Z,
    duration: 22135000,
    lockOutCount: 1,
    totalLockOutDuration: 809000 },
  { user: '1736',
    logOnTime: 2018-06-29T12:28:12.000Z,
    logOffTime: 2018-06-29T16:36:19.000Z,
    duration: 14887000,
    lockOutCount: 0,
    totalLockOutDuration: 0 } ]
sending to api....
sessions:
[ { user: '1558',
    logOnTime: 2018-06-29T06:04:17.000Z,
    logOffTime: 2018-06-29T14:32:06.000Z,
    duration: 30469000,
    lockOutCount: 4,
    totalLockOutDuration: 2232000 } ]
sending to api....
sessions:
[]
sending to api....
sessions:
[ { user: '1325',
    logOnTime: 2018-06-29T06:07:36.000Z,
    logOffTime: 2018-06-29T12:01:42.000Z,
    duration: 21246000,
    lockOutCount: 1,
    totalLockOutDuration: 1068000 } ]
sending to api....
sessions:
[ { user: '1753',
    logOnTime: 2018-06-30T12:53:26.000Z,
    logOffTime: 2018-06-30T16:23:18.000Z,
    duration: 12592000,
    lockOutCount: 1,
    totalLockOutDuration: 1754000 } ]
sending to api....
sessions:
[ { user: '1360',
    logOnTime: 2018-06-29T06:03:50.000Z,
    logOffTime: 2018-06-29T10:01:28.000Z,
    duration: 14258000,
    lockOutCount: 1,
    totalLockOutDuration: 1011000 },
  { user: '1527',
    logOnTime: 2018-06-29T14:43:16.000Z,
    logOffTime: 2018-06-29T16:07:47.000Z,
    duration: 5071000,
    lockOutCount: 1,
    totalLockOutDuration: 409000 } ]
sending to api....
sessions:
[ { user: '1512',
    logOnTime: 2018-07-03T06:14:29.000Z,
    logOffTime: 2018-07-03T06:47:42.000Z,
    duration: 1993000,
    lockOutCount: 0,
    totalLockOutDuration: 0 } ]
sending to api....
sessions:
[ { user: '1695',
    logOnTime: 2018-06-29T12:49:48.000Z,
    logOffTime: 2018-06-29T16:15:49.000Z,
    duration: 12361000,
    lockOutCount: 0,
    totalLockOutDuration: 0 },
  { user: '1695',
    logOnTime: 2018-06-30T12:51:17.000Z,
    logOffTime: 2018-06-30T13:28:49.000Z,
    duration: 2252000,
    lockOutCount: 0,
    totalLockOutDuration: 0 },
  { user: '1695',
    logOnTime: 2018-07-02T12:54:46.000Z,
    logOffTime: 2018-07-02T16:15:58.000Z,
    duration: 12072000,
    lockOutCount: 0,
    totalLockOutDuration: 0 },
  { user: '1695',
    logOnTime: 2018-07-03T12:50:33.000Z,
    logOffTime: 2018-07-03T16:16:17.000Z,
    duration: 12344000,
    lockOutCount: 0,
    totalLockOutDuration: 0 },
  { user: '1695',
    logOnTime: 2018-07-04T12:48:52.000Z,
    logOffTime: 2018-07-04T16:15:20.000Z,
    duration: 12388000,
    lockOutCount: 0,
    totalLockOutDuration: 0 },
  { user: '1695',
    logOnTime: 2018-07-05T12:58:46.000Z,
    logOffTime: 2018-07-05T16:15:29.000Z,
    duration: 11803000,
    lockOutCount: 1,
    totalLockOutDuration: 21000 } ]
sending to api....
sessions:
[]
sending to api....
sessions:
[ { user: '1625',
    logOnTime: 2018-06-29T06:17:58.000Z,
    logOffTime: 2018-06-29T14:30:48.000Z,
    duration: 29570000,
    lockOutCount: 8,
    totalLockOutDuration: 4031000 },
  { user: '1625',
    logOnTime: 2018-06-30T06:14:25.000Z,
    logOffTime: 2018-06-30T14:02:54.000Z,
    duration: 28109000,
    lockOutCount: 11,
    totalLockOutDuration: 2688000 },
  { user: '1625',
    logOnTime: 2018-07-02T06:16:54.000Z,
    logOffTime: 2018-07-02T14:30:42.000Z,
    duration: 29628000,
    lockOutCount: 5,
    totalLockOutDuration: 2604000 },
  { user: '1625',
    logOnTime: 2018-07-03T06:14:48.000Z,
    logOffTime: 2018-07-03T14:31:52.000Z,
    duration: 29824000,
    lockOutCount: 2,
    totalLockOutDuration: 1977000 },
  { user: '1625',
    logOnTime: 2018-07-04T06:16:03.000Z,
    logOffTime: 2018-07-04T14:30:09.000Z,
    duration: 29646000,
    lockOutCount: 6,
    totalLockOutDuration: 2837000 },
  { user: '1625',
    logOnTime: 2018-07-05T06:12:29.000Z,
    logOffTime: 2018-07-05T14:30:19.000Z,
    duration: 29870000,
    lockOutCount: 8,
    totalLockOutDuration: 2722000 } ]
sending to api....
sessions:
[ { user: '1720',
    logOnTime: 2018-06-29T06:12:18.000Z,
    logOffTime: 2018-06-29T14:30:50.000Z,
    duration: 29912000,
    lockOutCount: 3,
    totalLockOutDuration: 528000 } ]
sending to api....
sessions:
[ { user: '1789',
    logOnTime: 2018-06-29T06:08:39.000Z,
    logOffTime: 2018-06-29T14:30:00.000Z,
    duration: 30081000,
    lockOutCount: 2,
    totalLockOutDuration: 659000 },
  { user: '1517',
    logOnTime: 2018-06-30T13:12:34.000Z,
    logOffTime: 2018-06-30T14:29:35.000Z,
    duration: 4621000,
    lockOutCount: 0,
    totalLockOutDuration: 0 },
  { user: '1789',
    logOnTime: 2018-07-03T06:06:45.000Z,
    logOffTime: 2018-07-03T14:32:14.000Z,
    duration: 30329000,
    lockOutCount: 2,
    totalLockOutDuration: 2281000 },
  { user: '1789',
    logOnTime: 2018-07-04T06:01:43.000Z,
    logOffTime: 2018-07-04T14:28:02.000Z,
    duration: 30379000,
    lockOutCount: 2,
    totalLockOutDuration: 2555000 },
  { user: '1789',
    logOnTime: 2018-07-05T06:13:03.000Z,
    logOffTime: 2018-07-05T14:28:17.000Z,
    duration: 29714000,
    lockOutCount: 2,
    totalLockOutDuration: 876000 } ]
sending to api....
sessions:
[ { user: '1712',
    logOnTime: 2018-06-30T06:03:44.000Z,
    logOffTime: 2018-06-30T06:26:48.000Z,
    duration: 1384000,
    lockOutCount: 0,
    totalLockOutDuration: 0 },
  { user: '1712',
    logOnTime: 2018-06-30T06:39:31.000Z,
    logOffTime: 2018-06-30T14:31:16.000Z,
    duration: 28305000,
    lockOutCount: 0,
    totalLockOutDuration: 0 },
  { user: '1712',
    logOnTime: 2018-07-03T06:00:53.000Z,
    logOffTime: 2018-07-03T14:33:18.000Z,
    duration: 30745000,
    lockOutCount: 0,
    totalLockOutDuration: 0 },
  { user: '1712',
    logOnTime: 2018-07-04T05:58:55.000Z,
    logOffTime: 2018-07-04T14:33:26.000Z,
    duration: 30871000,
    lockOutCount: 0,
    totalLockOutDuration: 0 },
  { user: '1712',
    logOnTime: 2018-07-05T06:02:22.000Z,
    logOffTime: 2018-07-05T14:30:21.000Z,
    duration: 30479000,
    lockOutCount: 0,
    totalLockOutDuration: 0 } ]
sending to api....
sessions:
[ { user: '1750',
    logOnTime: 2018-06-29T06:19:31.000Z,
    logOffTime: 2018-06-29T07:49:27.000Z,
    duration: 5396000,
    lockOutCount: 0,
    totalLockOutDuration: 0 },
  { user: '1750',
    logOnTime: 2018-06-29T08:24:22.000Z,
    logOffTime: 2018-06-29T11:32:05.000Z,
    duration: 11263000,
    lockOutCount: 0,
    totalLockOutDuration: 0 },
  { user: '1750',
    logOnTime: 2018-06-29T12:09:37.000Z,
    logOffTime: 2018-06-29T14:32:32.000Z,
    duration: 8575000,
    lockOutCount: 0,
    totalLockOutDuration: 0 },
  { user: '1750',
    logOnTime: 2018-06-30T06:09:35.000Z,
    logOffTime: 2018-06-30T07:49:03.000Z,
    duration: 5968000,
    lockOutCount: 0,
    totalLockOutDuration: 0 },
  { user: '1750',
    logOnTime: 2018-06-30T08:24:17.000Z,
    logOffTime: 2018-06-30T11:30:57.000Z,
    duration: 11200000,
    lockOutCount: 0,
    totalLockOutDuration: 0 },
  { user: '1750',
    logOnTime: 2018-06-30T12:09:18.000Z,
    logOffTime: 2018-06-30T14:26:55.000Z,
    duration: 8257000,
    lockOutCount: 0,
    totalLockOutDuration: 0 },
  { user: '1750',
    logOnTime: 2018-07-03T06:09:36.000Z,
    logOffTime: 2018-07-03T07:47:34.000Z,
    duration: 5878000,
    lockOutCount: 0,
    totalLockOutDuration: 0 },
  { user: '1750',
    logOnTime: 2018-07-03T08:21:12.000Z,
    logOffTime: 2018-07-03T11:38:33.000Z,
    duration: 11841000,
    lockOutCount: 0,
    totalLockOutDuration: 0 },
  { user: '1750',
    logOnTime: 2018-07-03T12:10:32.000Z,
    logOffTime: 2018-07-03T14:32:57.000Z,
    duration: 8545000,
    lockOutCount: 0,
    totalLockOutDuration: 0 },
  { user: '1750',
    logOnTime: 2018-07-04T06:09:13.000Z,
    logOffTime: 2018-07-04T07:48:36.000Z,
    duration: 5963000,
    lockOutCount: 0,
    totalLockOutDuration: 0 },
  { user: '1750',
    logOnTime: 2018-07-04T08:26:36.000Z,
    logOffTime: 2018-07-04T11:29:49.000Z,
    duration: 10993000,
    lockOutCount: 0,
    totalLockOutDuration: 0 },
  { user: '1750',
    logOnTime: 2018-07-04T12:10:10.000Z,
    logOffTime: 2018-07-04T14:30:29.000Z,
    duration: 8419000,
    lockOutCount: 0,
    totalLockOutDuration: 0 },
  { user: '1750',
    logOnTime: 2018-07-05T06:10:36.000Z,
    logOffTime: 2018-07-05T06:55:41.000Z,
    duration: 2705000,
    lockOutCount: 0,
    totalLockOutDuration: 0 },
  { user: '1750',
    logOnTime: 2018-07-05T07:02:42.000Z,
    logOffTime: 2018-07-05T07:47:13.000Z,
    duration: 2671000,
    lockOutCount: 0,
    totalLockOutDuration: 0 },
  { user: '1750',
    logOnTime: 2018-07-05T08:22:36.000Z,
    logOffTime: 2018-07-05T11:30:00.000Z,
    duration: 11244000,
    lockOutCount: 0,
    totalLockOutDuration: 0 },
  { user: '1750',
    logOnTime: 2018-07-05T12:06:54.000Z,
    logOffTime: 2018-07-05T12:44:36.000Z,
    duration: 2262000,
    lockOutCount: 0,
    totalLockOutDuration: 0 },
  { user: '1750',
    logOnTime: 2018-07-05T13:00:51.000Z,
    logOffTime: 2018-07-05T14:29:25.000Z,
    duration: 5314000,
    lockOutCount: 0,
    totalLockOutDuration: 0 } ]
sending to api....
sessions:
[ { user: '1543',
    logOnTime: 2018-06-29T06:12:25.000Z,
    logOffTime: 2018-06-29T12:02:36.000Z,
    duration: 21011000,
    lockOutCount: 1,
    totalLockOutDuration: 523000 } ]
sending to api....
sessions:
[]
sending to api....
sessions:
[ { user: '1265',
    logOnTime: 2018-06-29T06:13:23.000Z,
    logOffTime: 2018-06-29T12:15:43.000Z,
    duration: 21740000,
    lockOutCount: 1,
    totalLockOutDuration: 1021000 },
  { user: '1265',
    logOnTime: 2018-06-30T06:12:21.000Z,
    logOffTime: 2018-06-30T12:05:47.000Z,
    duration: 21206000,
    lockOutCount: 2,
    totalLockOutDuration: 1246000 } ]
sending to api....
sessions:
[]
sending to api....
sessions:
[]
sending to api....
sessions:
[ { user: '1749',
    logOnTime: 2018-06-29T05:57:50.000Z,
    logOffTime: 2018-06-29T14:30:40.000Z,
    duration: 30770000,
    lockOutCount: 3,
    totalLockOutDuration: 1908000 },
  { user: '1749',
    logOnTime: 2018-06-30T06:01:17.000Z,
    logOffTime: 2018-06-30T14:27:15.000Z,
    duration: 30358000,
    lockOutCount: 5,
    totalLockOutDuration: 4720000 },
  { user: '1749',
    logOnTime: 2018-07-03T06:05:02.000Z,
    logOffTime: 2018-07-03T14:34:04.000Z,
    duration: 30542000,
    lockOutCount: 2,
    totalLockOutDuration: 2794000 },
  { user: '1749',
    logOnTime: 2018-07-04T06:02:01.000Z,
    logOffTime: 2018-07-04T14:31:06.000Z,
    duration: 30545000,
    lockOutCount: 6,
    totalLockOutDuration: 2630000 },
  { user: '1749',
    logOnTime: 2018-07-05T06:04:54.000Z,
    logOffTime: 2018-07-05T11:34:04.000Z,
    duration: 19750000,
    lockOutCount: 1,
    totalLockOutDuration: 1584000 },
  { user: '1749',
    logOnTime: 2018-07-05T12:09:15.000Z,
    logOffTime: 2018-07-05T14:30:24.000Z,
    duration: 8469000,
    lockOutCount: 4,
    totalLockOutDuration: 602000 } ]
sending to api....
sessions:
[ { user: '1552',
    logOnTime: 2018-06-29T06:10:05.000Z,
    logOffTime: 2018-06-29T12:02:49.000Z,
    duration: 21164000,
    lockOutCount: 1,
    totalLockOutDuration: 1664000 },
  { user: '1552',
    logOnTime: 2018-06-30T06:07:14.000Z,
    logOffTime: 2018-06-30T12:01:59.000Z,
    duration: 21285000,
    lockOutCount: 1,
    totalLockOutDuration: 478000 },
  { user: '1552',
    logOnTime: 2018-07-02T06:13:16.000Z,
    logOffTime: 2018-07-02T12:02:48.000Z,
    duration: 20972000,
    lockOutCount: 1,
    totalLockOutDuration: 739000 },
  { user: '1552',
    logOnTime: 2018-07-03T06:00:48.000Z,
    logOffTime: 2018-07-03T12:04:20.000Z,
    duration: 21812000,
    lockOutCount: 2,
    totalLockOutDuration: 1254000 },
  { user: '1552',
    logOnTime: 2018-07-04T06:02:41.000Z,
    logOffTime: 2018-07-04T12:03:20.000Z,
    duration: 21639000,
    lockOutCount: 1,
    totalLockOutDuration: 469000 },
  { user: '1552',
    logOnTime: 2018-07-05T06:10:53.000Z,
    logOffTime: 2018-07-05T10:41:15.000Z,
    duration: 16222000,
    lockOutCount: 1,
    totalLockOutDuration: 989000 },
  { user: '1552',
    logOnTime: 2018-07-05T10:48:28.000Z,
    logOffTime: 2018-07-05T12:03:17.000Z,
    duration: 4489000,
    lockOutCount: 0,
    totalLockOutDuration: 0 } ]
sending to api....
sessions:
[ { user: '1205',
    logOnTime: 2018-06-29T06:04:22.000Z,
    logOffTime: 2018-06-29T12:02:56.000Z,
    duration: 21514000,
    lockOutCount: 1,
    totalLockOutDuration: 1225000 },
  { user: '1205',
    logOnTime: 2018-06-30T06:03:11.000Z,
    logOffTime: 2018-06-30T12:07:13.000Z,
    duration: 21842000,
    lockOutCount: 2,
    totalLockOutDuration: 622000 },
  { user: '1205',
    logOnTime: 2018-07-02T06:04:21.000Z,
    logOffTime: 2018-07-02T08:48:55.000Z,
    duration: 9874000,
    lockOutCount: 1,
    totalLockOutDuration: 588000 },
  { user: '1205',
    logOnTime: 2018-07-02T08:56:19.000Z,
    logOffTime: 2018-07-02T12:02:29.000Z,
    duration: 11170000,
    lockOutCount: 0,
    totalLockOutDuration: 0 },
  { user: '1205',
    logOnTime: 2018-07-03T06:03:31.000Z,
    logOffTime: 2018-07-03T12:03:11.000Z,
    duration: 21580000,
    lockOutCount: 2,
    totalLockOutDuration: 1371000 },
  { user: '1205',
    logOnTime: 2018-07-04T06:05:54.000Z,
    logOffTime: 2018-07-04T12:04:15.000Z,
    duration: 21501000,
    lockOutCount: 1,
    totalLockOutDuration: 1408000 },
  { user: '1205',
    logOnTime: 2018-07-05T06:03:24.000Z,
    logOffTime: 2018-07-05T12:04:34.000Z,
    duration: 21670000,
    lockOutCount: 1,
    totalLockOutDuration: 870000 } ]
sending to api....
sessions:
[ { user: '1045',
    logOnTime: 2018-06-29T06:10:44.000Z,
    logOffTime: 2018-06-29T12:01:05.000Z,
    duration: 21021000,
    lockOutCount: 1,
    totalLockOutDuration: 633000 } ]
sending to api....
sessions:
[ { user: '1703',
    logOnTime: 2018-06-29T06:10:08.000Z,
    logOffTime: 2018-06-29T14:29:50.000Z,
    duration: 29982000,
    lockOutCount: 3,
    totalLockOutDuration: 1656000 } ]
sending to api....
sessions:
[ { user: '1771',
    logOnTime: 2018-06-29T06:09:00.000Z,
    logOffTime: 2018-06-29T14:28:39.000Z,
    duration: 29979000,
    lockOutCount: 3,
    totalLockOutDuration: 1919000 },
  { user: '1771',
    logOnTime: 2018-06-30T06:03:33.000Z,
    logOffTime: 2018-06-30T14:28:43.000Z,
    duration: 30310000,
    lockOutCount: 4,
    totalLockOutDuration: 2319000 },
  { user: '1771',
    logOnTime: 2018-07-03T06:02:59.000Z,
    logOffTime: 2018-07-03T14:27:30.000Z,
    duration: 30271000,
    lockOutCount: 2,
    totalLockOutDuration: 2077000 },
  { user: '1771',
    logOnTime: 2018-07-04T06:04:03.000Z,
    logOffTime: 2018-07-04T14:28:45.000Z,
    duration: 30282000,
    lockOutCount: 3,
    totalLockOutDuration: 3168000 },
  { user: '1771',
    logOnTime: 2018-07-05T06:04:12.000Z,
    logOffTime: 2018-07-05T14:29:51.000Z,
    duration: 30339000,
    lockOutCount: 6,
    totalLockOutDuration: 1754000 } ]
sending to api....
sessions:
[ { user: '1716',
    logOnTime: 2018-06-29T06:12:05.000Z,
    logOffTime: 2018-06-29T14:33:09.000Z,
    duration: 30064000,
    lockOutCount: 0,
    totalLockOutDuration: 0 },
  { user: '1716',
    logOnTime: 2018-06-30T06:09:18.000Z,
    logOffTime: 2018-06-30T14:31:48.000Z,
    duration: 30150000,
    lockOutCount: 2,
    totalLockOutDuration: 2325000 },
  { user: '1716',
    logOnTime: 2018-07-03T06:01:00.000Z,
    logOffTime: 2018-07-03T14:33:14.000Z,
    duration: 30734000,
    lockOutCount: 1,
    totalLockOutDuration: 1797000 },
  { user: '1716',
    logOnTime: 2018-07-04T06:02:03.000Z,
    logOffTime: 2018-07-04T14:34:05.000Z,
    duration: 30722000,
    lockOutCount: 2,
    totalLockOutDuration: 4082000 },
  { user: '1716',
    logOnTime: 2018-07-05T06:03:22.000Z,
    logOffTime: 2018-07-05T14:30:44.000Z,
    duration: 30442000,
    lockOutCount: 3,
    totalLockOutDuration: 3101000 } ]
sending to api....
sessions:
[ { user: '1618',
    logOnTime: 2018-06-29T06:17:28.000Z,
    logOffTime: 2018-06-29T10:44:00.000Z,
    duration: 15992000,
    lockOutCount: 0,
    totalLockOutDuration: 0 },
  { user: '1618',
    logOnTime: 2018-06-29T10:51:25.000Z,
    logOffTime: 2018-06-29T12:08:54.000Z,
    duration: 4649000,
    lockOutCount: 0,
    totalLockOutDuration: 0 } ]
sending to api....
sessions:
[ { user: '1770',
    logOnTime: 2018-06-29T06:12:51.000Z,
    logOffTime: 2018-06-29T14:31:13.000Z,
    duration: 29902000,
    lockOutCount: 2,
    totalLockOutDuration: 2987000 },
  { user: '1770',
    logOnTime: 2018-07-03T06:01:27.000Z,
    logOffTime: 2018-07-03T14:28:31.000Z,
    duration: 30424000,
    lockOutCount: 2,
    totalLockOutDuration: 3577000 },
  { user: '1770',
    logOnTime: 2018-07-04T06:16:20.000Z,
    logOffTime: 2018-07-04T14:31:14.000Z,
    duration: 29694000,
    lockOutCount: 4,
    totalLockOutDuration: 4030000 },
  { user: '1770',
    logOnTime: 2018-07-05T06:15:16.000Z,
    logOffTime: 2018-07-05T14:31:56.000Z,
    duration: 29800000,
    lockOutCount: 5,
    totalLockOutDuration: 3950000 } ]
sending to api....
sessions:
[ { user: '1706',
    logOnTime: 2018-06-29T06:16:01.000Z,
    logOffTime: 2018-06-29T08:15:47.000Z,
    duration: 7186000,
    lockOutCount: 0,
    totalLockOutDuration: 0 },
  { user: '1706',
    logOnTime: 2018-06-29T08:54:53.000Z,
    logOffTime: 2018-06-29T12:03:46.000Z,
    duration: 11333000,
    lockOutCount: 0,
    totalLockOutDuration: 0 },
  { user: '1706',
    logOnTime: 2018-06-29T12:35:45.000Z,
    logOffTime: 2018-06-29T14:30:37.000Z,
    duration: 6892000,
    lockOutCount: 1,
    totalLockOutDuration: 6000 },
  { user: '1706',
    logOnTime: 2018-06-30T06:10:53.000Z,
    logOffTime: 2018-06-30T12:01:06.000Z,
    duration: 21013000,
    lockOutCount: 4,
    totalLockOutDuration: 1209000 },
  { user: '1706',
    logOnTime: 2018-06-30T12:44:04.000Z,
    logOffTime: 2018-06-30T14:28:37.000Z,
    duration: 6273000,
    lockOutCount: 0,
    totalLockOutDuration: 0 },
  { user: '1706',
    logOnTime: 2018-07-03T06:07:44.000Z,
    logOffTime: 2018-07-03T14:31:23.000Z,
    duration: 30219000,
    lockOutCount: 4,
    totalLockOutDuration: 2018000 },
  { user: '1706',
    logOnTime: 2018-07-04T06:16:01.000Z,
    logOffTime: 2018-07-04T14:29:57.000Z,
    duration: 29636000,
    lockOutCount: 2,
    totalLockOutDuration: 3003000 },
  { user: '1706',
    logOnTime: 2018-07-05T06:12:48.000Z,
    logOffTime: 2018-07-05T14:29:14.000Z,
    duration: 29786000,
    lockOutCount: 3,
    totalLockOutDuration: 2163000 } ]
sending to api....
sessions:
[ { user: '1709',
    logOnTime: 2018-06-29T06:08:34.000Z,
    logOffTime: 2018-06-29T14:33:56.000Z,
    duration: 30322000,
    lockOutCount: 2,
    totalLockOutDuration: 2041000 },
  { user: '1709',
    logOnTime: 2018-07-03T06:11:34.000Z,
    logOffTime: 2018-07-03T14:30:18.000Z,
    duration: 29924000,
    lockOutCount: 1,
    totalLockOutDuration: 10926000 },
  { user: '1709',
    logOnTime: 2018-07-04T06:09:08.000Z,
    logOffTime: 2018-07-04T14:30:13.000Z,
    duration: 30065000,
    lockOutCount: 3,
    totalLockOutDuration: 16749000 },
  { user: '1709',
    logOnTime: 2018-07-05T06:14:49.000Z,
    logOffTime: 2018-07-05T14:28:24.000Z,
    duration: 29615000,
    lockOutCount: 1,
    totalLockOutDuration: 13409000 } ]
sending to api....
sessions:
[ { user: '1240',
    logOnTime: 2018-06-29T06:15:16.000Z,
    logOffTime: 2018-06-29T14:33:49.000Z,
    duration: 29913000,
    lockOutCount: 0,
    totalLockOutDuration: 0 } ]
sending to api....
sessions:
[ { user: '1477',
    logOnTime: 2018-06-30T14:46:42.000Z,
    logOffTime: 2018-06-30T16:36:21.000Z,
    duration: 6579000,
    lockOutCount: 2,
    totalLockOutDuration: 1583000 },
  { user: '1477',
    logOnTime: 2018-07-02T18:05:37.000Z,
    logOffTime: 2018-07-03T10:10:07.000Z,
    duration: 57870000,
    lockOutCount: 0,
    totalLockOutDuration: 0 } ]
sending to api....
sessions:
[ { user: '1335',
    logOnTime: 2018-06-30T06:08:47.000Z,
    logOffTime: 2018-06-30T14:28:51.000Z,
    duration: 30004000,
    lockOutCount: 1,
    totalLockOutDuration: 238000 },
  { user: '1335',
    logOnTime: 2018-07-03T06:10:41.000Z,
    logOffTime: 2018-07-03T14:30:40.000Z,
    duration: 29999000,
    lockOutCount: 2,
    totalLockOutDuration: 1072000 },
  { user: '1335',
    logOnTime: 2018-07-04T06:10:32.000Z,
    logOffTime: 2018-07-04T14:30:28.000Z,
    duration: 29996000,
    lockOutCount: 2,
    totalLockOutDuration: 1770000 },
  { user: '1335',
    logOnTime: 2018-07-05T06:12:49.000Z,
    logOffTime: 2018-07-05T14:30:03.000Z,
    duration: 29834000,
    lockOutCount: 0,
    totalLockOutDuration: 0 } ]
sending to api....
sessions:
[]
sending to api....
sessions:
[]
sending to api....
sessions:
[ { user: '1342',
    logOnTime: 2018-06-29T06:13:34.000Z,
    logOffTime: 2018-06-29T09:13:27.000Z,
    duration: 10793000,
    lockOutCount: 1,
    totalLockOutDuration: 1055000 },
  { user: '1342',
    logOnTime: 2018-06-29T09:21:34.000Z,
    logOffTime: 2018-06-29T14:30:51.000Z,
    duration: 18557000,
    lockOutCount: 1,
    totalLockOutDuration: 377000 } ]
sending to api....
sessions:
[]
sending to api....
sessions:
[ { user: '1508',
    logOnTime: 2018-06-29T06:05:19.000Z,
    logOffTime: 2018-06-29T11:31:23.000Z,
    duration: 19564000,
    lockOutCount: 1,
    totalLockOutDuration: 1373000 },
  { user: '1508',
    logOnTime: 2018-07-02T06:07:51.000Z,
    logOffTime: 2018-07-02T12:03:48.000Z,
    duration: 21357000,
    lockOutCount: 1,
    totalLockOutDuration: 654000 },
  { user: '1508',
    logOnTime: 2018-07-03T06:07:16.000Z,
    logOffTime: 2018-07-03T12:04:36.000Z,
    duration: 21440000,
    lockOutCount: 2,
    totalLockOutDuration: 1272000 },
  { user: '1508',
    logOnTime: 2018-07-04T06:06:34.000Z,
    logOffTime: 2018-07-04T12:04:03.000Z,
    duration: 21449000,
    lockOutCount: 1,
    totalLockOutDuration: 1098000 },
  { user: '1508',
    logOnTime: 2018-07-05T06:07:15.000Z,
    logOffTime: 2018-07-05T12:02:42.000Z,
    duration: 21327000,
    lockOutCount: 1,
    totalLockOutDuration: 809000 } ]
sending to api....
sessions:
[ { user: '1200',
    logOnTime: 2018-06-29T06:07:21.000Z,
    logOffTime: 2018-06-29T14:30:08.000Z,
    duration: 30167000,
    lockOutCount: 2,
    totalLockOutDuration: 1127000 },
  { user: '1200',
    logOnTime: 2018-06-30T06:11:33.000Z,
    logOffTime: 2018-06-30T10:02:02.000Z,
    duration: 13829000,
    lockOutCount: 1,
    totalLockOutDuration: 741000 },
  { user: '1200',
    logOnTime: 2018-07-02T06:07:20.000Z,
    logOffTime: 2018-07-02T14:30:08.000Z,
    duration: 30168000,
    lockOutCount: 3,
    totalLockOutDuration: 2440000 },
  { user: '1200',
    logOnTime: 2018-07-03T06:11:05.000Z,
    logOffTime: 2018-07-03T16:31:25.000Z,
    duration: 37220000,
    lockOutCount: 2,
    totalLockOutDuration: 2074000 },
  { user: '1200',
    logOnTime: 2018-07-04T06:09:04.000Z,
    logOffTime: 2018-07-04T14:29:36.000Z,
    duration: 30032000,
    lockOutCount: 2,
    totalLockOutDuration: 2112000 },
  { user: '1200',
    logOnTime: 2018-07-05T06:09:30.000Z,
    logOffTime: 2018-07-05T14:28:33.000Z,
    duration: 29943000,
    lockOutCount: 4,
    totalLockOutDuration: 2131000 } ]
sending to api....
sessions:
[ { user: '1720',
    logOnTime: 2018-06-30T06:18:09.000Z,
    logOffTime: 2018-06-30T14:33:44.000Z,
    duration: 29735000,
    lockOutCount: 0,
    totalLockOutDuration: 0 },
  { user: '1720',
    logOnTime: 2018-07-03T06:09:52.000Z,
    logOffTime: 2018-07-03T14:31:31.000Z,
    duration: 30099000,
    lockOutCount: 0,
    totalLockOutDuration: 0 },
  { user: '1720',
    logOnTime: 2018-07-04T06:18:25.000Z,
    logOffTime: 2018-07-04T14:30:20.000Z,
    duration: 29515000,
    lockOutCount: 0,
    totalLockOutDuration: 0 },
  { user: '1720',
    logOnTime: 2018-07-05T06:10:42.000Z,
    logOffTime: 2018-07-05T14:31:00.000Z,
    duration: 30018000,
    lockOutCount: 0,
    totalLockOutDuration: 0 } ]
sending to api....
sessions:
[ { user: '1769',
    logOnTime: 2018-06-29T06:07:55.000Z,
    logOffTime: 2018-06-29T14:28:58.000Z,
    duration: 30063000,
    lockOutCount: 3,
    totalLockOutDuration: 3304000 },
  { user: '1769',
    logOnTime: 2018-06-30T06:57:34.000Z,
    logOffTime: 2018-06-30T14:26:15.000Z,
    duration: 26921000,
    lockOutCount: 5,
    totalLockOutDuration: 4807000 },
  { user: '1769',
    logOnTime: 2018-07-03T06:02:50.000Z,
    logOffTime: 2018-07-03T14:31:57.000Z,
    duration: 30547000,
    lockOutCount: 3,
    totalLockOutDuration: 2414000 },
  { user: '1769',
    logOnTime: 2018-07-04T06:03:08.000Z,
    logOffTime: 2018-07-04T14:35:55.000Z,
    duration: 30767000,
    lockOutCount: 3,
    totalLockOutDuration: 4096000 },
  { user: '1769',
    logOnTime: 2018-07-05T06:10:48.000Z,
    logOffTime: 2018-07-05T14:29:01.000Z,
    duration: 29893000,
    lockOutCount: 3,
    totalLockOutDuration: 3999000 } ]
sending to api....
sessions:
[ { user: '1745',
    logOnTime: 2018-06-29T06:08:59.000Z,
    logOffTime: 2018-06-29T10:01:05.000Z,
    duration: 13926000,
    lockOutCount: 1,
    totalLockOutDuration: 1757000 },
  { user: '1745',
    logOnTime: 2018-07-03T06:06:38.000Z,
    logOffTime: 2018-07-03T14:32:38.000Z,
    duration: 30360000,
    lockOutCount: 2,
    totalLockOutDuration: 3189000 },
  { user: '1745',
    logOnTime: 2018-07-04T06:09:14.000Z,
    logOffTime: 2018-07-04T14:30:52.000Z,
    duration: 30098000,
    lockOutCount: 2,
    totalLockOutDuration: 3800000 },
  { user: '1745',
    logOnTime: 2018-07-05T06:08:18.000Z,
    logOffTime: 2018-07-05T14:30:58.000Z,
    duration: 30160000,
    lockOutCount: 1,
    totalLockOutDuration: 694000 } ]
sending to api....
sessions:
[]
sending to api....
sessions:
[ { user: '1567',
    logOnTime: 2018-06-30T12:50:24.000Z,
    logOffTime: 2018-06-30T16:19:01.000Z,
    duration: 12517000,
    lockOutCount: 1,
    totalLockOutDuration: 4212000 },
  { user: '1567',
    logOnTime: 2018-07-03T19:53:17.000Z,
    logOffTime: 2018-07-03T20:44:19.000Z,
    duration: 3062000,
    lockOutCount: 0,
    totalLockOutDuration: 0 } ]
sending to api....
sessions:
[ { user: '1563',
    logOnTime: 2018-06-30T12:35:34.000Z,
    logOffTime: 2018-06-30T15:18:16.000Z,
    duration: 9762000,
    lockOutCount: 1,
    totalLockOutDuration: 191000 },
  { user: '1563',
    logOnTime: 2018-07-03T19:54:10.000Z,
    logOffTime: 2018-07-03T20:44:02.000Z,
    duration: 2992000,
    lockOutCount: 0,
    totalLockOutDuration: 0 } ]
sending to api....
sessions:
[ { user: '1728',
    logOnTime: 2018-06-30T12:48:12.000Z,
    logOffTime: 2018-06-30T16:20:51.000Z,
    duration: 12759000,
    lockOutCount: 1,
    totalLockOutDuration: 31000 } ]
sending to api....
sessions:
[ { user: '1707',
    logOnTime: 2018-06-29T06:07:07.000Z,
    logOffTime: 2018-06-29T14:35:14.000Z,
    duration: 30487000,
    lockOutCount: 2,
    totalLockOutDuration: 2480000 } ]
sending to api....
sessions:
[ { user: '1389',
    logOnTime: 2018-06-29T06:11:05.000Z,
    logOffTime: 2018-06-29T14:30:52.000Z,
    duration: 29987000,
    lockOutCount: 2,
    totalLockOutDuration: 1135000 } ]
sending to api....
sessions:
[ { user: '1791',
    logOnTime: 2018-06-29T05:56:21.000Z,
    logOffTime: 2018-06-29T14:29:51.000Z,
    duration: 30810000,
    lockOutCount: 1,
    totalLockOutDuration: 1009000 } ]
sending to api....
sessions:
[ { user: '1730',
    logOnTime: 2018-06-30T12:35:10.000Z,
    logOffTime: 2018-06-30T16:28:50.000Z,
    duration: 14020000,
    lockOutCount: 2,
    totalLockOutDuration: 200000 } ]
sending to api....
sessions:
[ { user: '1856',
    logOnTime: 2018-06-30T12:34:23.000Z,
    logOffTime: 2018-06-30T16:22:09.000Z,
    duration: 13666000,
    lockOutCount: 1,
    totalLockOutDuration: 241000 } ]
sending to api....
sessions:
[ { user: '1440',
    logOnTime: 2018-06-29T06:17:25.000Z,
    logOffTime: 2018-06-29T09:15:49.000Z,
    duration: 10704000,
    lockOutCount: 1,
    totalLockOutDuration: 782000 } ]
sending to api....
sessions:
[ { user: '1627',
    logOnTime: 2018-06-29T06:26:50.000Z,
    logOffTime: 2018-06-29T12:04:36.000Z,
    duration: 20266000,
    lockOutCount: 1,
    totalLockOutDuration: 1175000 },
  { user: '1627',
    logOnTime: 2018-06-30T06:01:56.000Z,
    logOffTime: 2018-06-30T11:37:22.000Z,
    duration: 20126000,
    lockOutCount: 1,
    totalLockOutDuration: 745000 },
  { user: '1792',
    logOnTime: 2018-06-30T12:37:07.000Z,
    logOffTime: 2018-06-30T16:23:38.000Z,
    duration: 13591000,
    lockOutCount: 3,
    totalLockOutDuration: 1292000 },
  { user: '1627',
    logOnTime: 2018-07-02T06:10:26.000Z,
    logOffTime: 2018-07-02T12:04:04.000Z,
    duration: 21218000,
    lockOutCount: 3,
    totalLockOutDuration: 1538000 },
  { user: '1627',
    logOnTime: 2018-07-03T06:04:24.000Z,
    logOffTime: 2018-07-03T07:13:31.000Z,
    duration: 4147000,
    lockOutCount: 0,
    totalLockOutDuration: 0 } ]
sending to api....
sessions:
[ { user: '1549',
    logOnTime: 2018-06-29T06:08:21.000Z,
    logOffTime: 2018-06-29T12:05:26.000Z,
    duration: 21425000,
    lockOutCount: 1,
    totalLockOutDuration: 998000 },
  { user: '1549',
    logOnTime: 2018-06-30T06:11:33.000Z,
    logOffTime: 2018-06-30T11:33:13.000Z,
    duration: 19300000,
    lockOutCount: 0,
    totalLockOutDuration: 0 } ]
sending to api....
sessions:
[ { user: '1570',
    logOnTime: 2018-06-29T06:07:50.000Z,
    logOffTime: 2018-06-29T12:05:43.000Z,
    duration: 21473000,
    lockOutCount: 1,
    totalLockOutDuration: 1105000 } ]
sending to api....
sessions:
[ { user: '1721',
    logOnTime: 2018-06-30T12:38:14.000Z,
    logOffTime: 2018-06-30T16:22:22.000Z,
    duration: 13448000,
    lockOutCount: 2,
    totalLockOutDuration: 773000 } ]
sending to api....
sessions:
[ { user: '1612',
    logOnTime: 2018-06-29T06:07:27.000Z,
    logOffTime: 2018-06-29T12:05:32.000Z,
    duration: 21485000,
    lockOutCount: 1,
    totalLockOutDuration: 1124000 } ]
sending to api....
sessions:
[]
sending to api....
sessions:
[ { user: '1808',
    logOnTime: 2018-06-29T06:02:43.000Z,
    logOffTime: 2018-06-29T08:03:13.000Z,
    duration: 7230000,
    lockOutCount: 0,
    totalLockOutDuration: 0 },
  { user: '1808',
    logOnTime: 2018-06-29T08:33:21.000Z,
    logOffTime: 2018-06-29T12:06:12.000Z,
    duration: 12771000,
    lockOutCount: 0,
    totalLockOutDuration: 0 } ]
sending to api....
sessions:
[ { user: '1813',
    logOnTime: 2018-06-29T06:12:26.000Z,
    logOffTime: 2018-06-29T12:03:22.000Z,
    duration: 21056000,
    lockOutCount: 1,
    totalLockOutDuration: 964000 } ]
sending to api....
sessions:
[ { user: '1555',
    logOnTime: 2018-06-29T06:07:43.000Z,
    logOffTime: 2018-06-29T12:03:05.000Z,
    duration: 21322000,
    lockOutCount: 1,
    totalLockOutDuration: 1072000 } ]
sending to api....
sessions:
[ { user: '1754',
    logOnTime: 2018-06-29T05:58:23.000Z,
    logOffTime: 2018-06-29T12:06:30.000Z,
    duration: 22087000,
    lockOutCount: 1,
    totalLockOutDuration: 421000 },
  { user: '1724',
    logOnTime: 2018-06-29T12:51:14.000Z,
    logOffTime: 2018-06-29T16:07:01.000Z,
    duration: 11747000,
    lockOutCount: 0,
    totalLockOutDuration: 0 } ]
sending to api....
sessions:
[ { user: '1755',
    logOnTime: 2018-06-29T06:03:46.000Z,
    logOffTime: 2018-06-29T12:02:34.000Z,
    duration: 21528000,
    lockOutCount: 1,
    totalLockOutDuration: 1289000 } ]
sending to api....
sessions:
[ { user: '1809',
    logOnTime: 2018-06-29T05:54:04.000Z,
    logOffTime: 2018-06-29T14:30:05.000Z,
    duration: 30961000,
    lockOutCount: 3,
    totalLockOutDuration: 2654000 },
  { user: '1809',
    logOnTime: 2018-06-30T06:05:59.000Z,
    logOffTime: 2018-06-30T14:28:47.000Z,
    duration: 30168000,
    lockOutCount: 4,
    totalLockOutDuration: 1973000 },
  { user: '1809',
    logOnTime: 2018-07-02T05:53:48.000Z,
    logOffTime: 2018-07-02T14:30:40.000Z,
    duration: 31012000,
    lockOutCount: 2,
    totalLockOutDuration: 1698000 },
  { user: '1809',
    logOnTime: 2018-07-03T06:01:05.000Z,
    logOffTime: 2018-07-03T14:30:04.000Z,
    duration: 30539000,
    lockOutCount: 2,
    totalLockOutDuration: 1501000 },
  { user: '1809',
    logOnTime: 2018-07-04T06:09:41.000Z,
    logOffTime: 2018-07-04T14:30:22.000Z,
    duration: 30041000,
    lockOutCount: 3,
    totalLockOutDuration: 2272000 },
  { user: '1809',
    logOnTime: 2018-07-05T05:59:22.000Z,
    logOffTime: 2018-07-05T14:29:47.000Z,
    duration: 30625000,
    lockOutCount: 2,
    totalLockOutDuration: 1590000 } ]
sending to api....
sessions:
[ { user: '1811',
    logOnTime: 2018-06-29T05:54:00.000Z,
    logOffTime: 2018-06-29T12:00:59.000Z,
    duration: 22019000,
    lockOutCount: 1,
    totalLockOutDuration: 1176000 },
  { user: '1811',
    logOnTime: 2018-06-29T12:31:37.000Z,
    logOffTime: 2018-06-29T14:30:20.000Z,
    duration: 7123000,
    lockOutCount: 0,
    totalLockOutDuration: 0 } ]
sending to api....
sessions:
[ { user: '1860',
    logOnTime: 2018-06-29T06:06:59.000Z,
    logOffTime: 2018-06-29T14:30:23.000Z,
    duration: 30204000,
    lockOutCount: 1,
    totalLockOutDuration: 920000 },
  { user: '1860',
    logOnTime: 2018-07-02T06:01:31.000Z,
    logOffTime: 2018-07-02T14:33:39.000Z,
    duration: 30728000,
    lockOutCount: 3,
    totalLockOutDuration: 885000 },
  { user: '1860',
    logOnTime: 2018-07-03T06:07:48.000Z,
    logOffTime: 2018-07-03T09:56:42.000Z,
    duration: 13734000,
    lockOutCount: 2,
    totalLockOutDuration: 1206000 },
  { user: '1860',
    logOnTime: 2018-07-04T06:11:13.000Z,
    logOffTime: 2018-07-04T14:28:22.000Z,
    duration: 29829000,
    lockOutCount: 4,
    totalLockOutDuration: 1729000 },
  { user: '1860',
    logOnTime: 2018-07-05T06:04:34.000Z,
    logOffTime: 2018-07-05T14:30:09.000Z,
    duration: 30335000,
    lockOutCount: 3,
    totalLockOutDuration: 321000 } ]
sending to api....
sessions:
[ { user: '1757',
    logOnTime: 2018-06-29T06:05:44.000Z,
    logOffTime: 2018-06-29T12:02:49.000Z,
    duration: 21425000,
    lockOutCount: 2,
    totalLockOutDuration: 200000 } ]
sending to api....
sessions:
[]
sending to api....
sessions:
[ { user: 'serey.men',
    logOnTime: 2018-06-29T06:07:21.000Z,
    logOffTime: 2018-06-29T14:29:39.000Z,
    duration: 30138000,
    lockOutCount: 2,
    totalLockOutDuration: 1002000 },
  { user: 'serey.men',
    logOnTime: 2018-06-30T05:57:08.000Z,
    logOffTime: 2018-06-30T14:00:04.000Z,
    duration: 28976000,
    lockOutCount: 2,
    totalLockOutDuration: 784000 },
  { user: 'serey.men',
    logOnTime: 2018-07-03T06:05:20.000Z,
    logOffTime: 2018-07-03T06:11:10.000Z,
    duration: 350000,
    lockOutCount: 0,
    totalLockOutDuration: 0 } ]
sending to api....
sessions:
[ { user: '1209',
    logOnTime: 2018-06-29T06:13:10.000Z,
    logOffTime: 2018-06-29T12:02:33.000Z,
    duration: 20963000,
    lockOutCount: 0,
    totalLockOutDuration: 0 } ]
sending to api....
sessions:
[ { user: '1726',
    logOnTime: 2018-06-29T06:10:37.000Z,
    logOffTime: 2018-06-29T08:03:48.000Z,
    duration: 6791000,
    lockOutCount: 0,
    totalLockOutDuration: 0 },
  { user: '1726',
    logOnTime: 2018-06-29T08:38:48.000Z,
    logOffTime: 2018-06-29T12:01:12.000Z,
    duration: 12144000,
    lockOutCount: 1,
    totalLockOutDuration: 292000 },
  { user: '1726',
    logOnTime: 2018-06-29T12:40:13.000Z,
    logOffTime: 2018-06-29T14:30:27.000Z,
    duration: 6614000,
    lockOutCount: 0,
    totalLockOutDuration: 0 } ]
sending to api....
sessions:
[ { user: '1746',
    logOnTime: 2018-06-29T06:10:13.000Z,
    logOffTime: 2018-06-29T14:29:58.000Z,
    duration: 29985000,
    lockOutCount: 2,
    totalLockOutDuration: 2307000 },
  { user: '1819',
    logOnTime: 2018-06-29T18:50:59.000Z,
    logOffTime: 2018-06-29T20:45:12.000Z,
    duration: 6853000,
    lockOutCount: 0,
    totalLockOutDuration: 0 },
  { user: '1746',
    logOnTime: 2018-06-30T06:11:32.000Z,
    logOffTime: 2018-06-30T14:28:22.000Z,
    duration: 29810000,
    lockOutCount: 2,
    totalLockOutDuration: 2294000 },
  { user: '1819',
    logOnTime: 2018-07-02T18:52:45.000Z,
    logOffTime: 2018-07-02T20:45:48.000Z,
    duration: 6783000,
    lockOutCount: 0,
    totalLockOutDuration: 0 },
  { user: '1819',
    logOnTime: 2018-07-03T18:52:50.000Z,
    logOffTime: 2018-07-03T20:45:12.000Z,
    duration: 6742000,
    lockOutCount: 0,
    totalLockOutDuration: 0 } ]
sending to api....
sessions:
[ { user: '1714',
    logOnTime: 2018-06-29T06:02:28.000Z,
    logOffTime: 2018-06-29T08:03:40.000Z,
    duration: 7272000,
    lockOutCount: 0,
    totalLockOutDuration: 0 },
  { user: '1714',
    logOnTime: 2018-06-29T08:37:59.000Z,
    logOffTime: 2018-06-29T14:31:25.000Z,
    duration: 21206000,
    lockOutCount: 1,
    totalLockOutDuration: 839000 },
  { user: '1714',
    logOnTime: 2018-06-30T05:59:17.000Z,
    logOffTime: 2018-06-30T14:27:39.000Z,
    duration: 30502000,
    lockOutCount: 2,
    totalLockOutDuration: 1216000 },
  { user: '1714',
    logOnTime: 2018-07-03T06:07:20.000Z,
    logOffTime: 2018-07-03T14:34:05.000Z,
    duration: 30405000,
    lockOutCount: 2,
    totalLockOutDuration: 1658000 },
  { user: '1714',
    logOnTime: 2018-07-04T06:00:18.000Z,
    logOffTime: 2018-07-04T14:30:17.000Z,
    duration: 30599000,
    lockOutCount: 3,
    totalLockOutDuration: 1818000 },
  { user: '1714',
    logOnTime: 2018-07-05T06:03:01.000Z,
    logOffTime: 2018-07-05T14:30:08.000Z,
    duration: 30427000,
    lockOutCount: 3,
    totalLockOutDuration: 1677000 } ]
sending to api....
sessions:
[ { user: '1469',
    logOnTime: 2018-06-29T06:06:02.000Z,
    logOffTime: 2018-06-29T14:30:18.000Z,
    duration: 30256000,
    lockOutCount: 1,
    totalLockOutDuration: 1118000 },
  { user: '1469',
    logOnTime: 2018-06-30T06:12:39.000Z,
    logOffTime: 2018-06-30T14:00:24.000Z,
    duration: 28065000,
    lockOutCount: 2,
    totalLockOutDuration: 1701000 },
  { user: '1469',
    logOnTime: 2018-07-03T06:10:20.000Z,
    logOffTime: 2018-07-03T14:30:29.000Z,
    duration: 30009000,
    lockOutCount: 2,
    totalLockOutDuration: 1382000 },
  { user: '1469',
    logOnTime: 2018-07-04T06:05:06.000Z,
    logOffTime: 2018-07-04T06:05:30.000Z,
    duration: 24000,
    lockOutCount: 0,
    totalLockOutDuration: 0 },
  { user: '1469',
    logOnTime: 2018-07-04T06:11:45.000Z,
    logOffTime: 2018-07-04T14:30:13.000Z,
    duration: 29908000,
    lockOutCount: 1,
    totalLockOutDuration: 1140000 },
  { user: '1469',
    logOnTime: 2018-07-05T06:11:58.000Z,
    logOffTime: 2018-07-05T14:29:52.000Z,
    duration: 29874000,
    lockOutCount: 2,
    totalLockOutDuration: 769000 } ]
sending to api....
sessions:
[ { user: '1854',
    logOnTime: 2018-06-29T06:09:29.000Z,
    logOffTime: 2018-06-29T14:31:05.000Z,
    duration: 30096000,
    lockOutCount: 3,
    totalLockOutDuration: 1909000 } ]
sending to api....
sessions:
[ { user: '1718',
    logOnTime: 2018-06-29T06:12:16.000Z,
    logOffTime: 2018-06-29T08:59:19.000Z,
    duration: 10023000,
    lockOutCount: 1,
    totalLockOutDuration: 917000 },
  { user: '1718',
    logOnTime: 2018-06-29T09:05:40.000Z,
    logOffTime: 2018-06-29T14:31:40.000Z,
    duration: 19560000,
    lockOutCount: 1,
    totalLockOutDuration: 642000 },
  { user: '1718',
    logOnTime: 2018-06-30T06:08:01.000Z,
    logOffTime: 2018-06-30T14:27:53.000Z,
    duration: 29992000,
    lockOutCount: 4,
    totalLockOutDuration: 1761000 },
  { user: '1718',
    logOnTime: 2018-07-03T06:12:31.000Z,
    logOffTime: 2018-07-03T14:30:47.000Z,
    duration: 29896000,
    lockOutCount: 3,
    totalLockOutDuration: 1869000 },
  { user: '1718',
    logOnTime: 2018-07-04T06:10:09.000Z,
    logOffTime: 2018-07-04T14:30:38.000Z,
    duration: 30029000,
    lockOutCount: 3,
    totalLockOutDuration: 1968000 },
  { user: '1718',
    logOnTime: 2018-07-05T06:07:59.000Z,
    logOffTime: 2018-07-05T14:30:08.000Z,
    duration: 30129000,
    lockOutCount: 1,
    totalLockOutDuration: 331000 } ]
sending to api....
sessions:
[ { user: '1790',
    logOnTime: 2018-06-29T06:11:57.000Z,
    logOffTime: 2018-06-29T08:02:32.000Z,
    duration: 6635000,
    lockOutCount: 0,
    totalLockOutDuration: 0 },
  { user: '1790',
    logOnTime: 2018-06-29T08:41:15.000Z,
    logOffTime: 2018-06-29T14:30:12.000Z,
    duration: 20937000,
    lockOutCount: 0,
    totalLockOutDuration: 0 },
  { user: '1812',
    logOnTime: 2018-06-29T18:51:22.000Z,
    logOffTime: 2018-06-29T20:44:53.000Z,
    duration: 6811000,
    lockOutCount: 0,
    totalLockOutDuration: 0 },
  { user: '1790',
    logOnTime: 2018-06-30T06:09:54.000Z,
    logOffTime: 2018-06-30T14:28:20.000Z,
    duration: 29906000,
    lockOutCount: 2,
    totalLockOutDuration: 1083000 },
  { user: '1790',
    logOnTime: 2018-07-03T06:07:59.000Z,
    logOffTime: 2018-07-03T14:30:57.000Z,
    duration: 30178000,
    lockOutCount: 1,
    totalLockOutDuration: 828000 },
  { user: '1790',
    logOnTime: 2018-07-04T05:59:49.000Z,
    logOffTime: 2018-07-04T14:29:42.000Z,
    duration: 30593000,
    lockOutCount: 4,
    totalLockOutDuration: 1398000 },
  { user: '1790',
    logOnTime: 2018-07-05T06:07:08.000Z,
    logOffTime: 2018-07-05T14:29:28.000Z,
    duration: 30140000,
    lockOutCount: 3,
    totalLockOutDuration: 1565000 } ]
sending to api....
sessions:
[ { user: '1717',
    logOnTime: 2018-06-29T06:20:34.000Z,
    logOffTime: 2018-06-29T14:30:26.000Z,
    duration: 29392000,
    lockOutCount: 1,
    totalLockOutDuration: 775000 },
  { user: '1815',
    logOnTime: 2018-06-29T18:51:24.000Z,
    logOffTime: 2018-06-29T20:45:00.000Z,
    duration: 6816000,
    lockOutCount: 1,
    totalLockOutDuration: 57000 },
  { user: '1717',
    logOnTime: 2018-06-30T06:10:52.000Z,
    logOffTime: 2018-06-30T14:28:01.000Z,
    duration: 29829000,
    lockOutCount: 3,
    totalLockOutDuration: 1693000 },
  { user: '1815',
    logOnTime: 2018-07-02T18:52:46.000Z,
    logOffTime: 2018-07-02T20:45:14.000Z,
    duration: 6748000,
    lockOutCount: 0,
    totalLockOutDuration: 0 },
  { user: '1717',
    logOnTime: 2018-07-03T06:12:35.000Z,
    logOffTime: 2018-07-03T14:31:57.000Z,
    duration: 29962000,
    lockOutCount: 2,
    totalLockOutDuration: 2944000 },
  { user: '1815',
    logOnTime: 2018-07-03T18:53:48.000Z,
    logOffTime: 2018-07-03T20:43:46.000Z,
    duration: 6598000,
    lockOutCount: 0,
    totalLockOutDuration: 0 },
  { user: '1717',
    logOnTime: 2018-07-04T06:09:15.000Z,
    logOffTime: 2018-07-04T14:31:50.000Z,
    duration: 30155000,
    lockOutCount: 3,
    totalLockOutDuration: 1823000 } ]
sending to api....
sessions:
[ { user: '1853',
    logOnTime: 2018-06-29T06:13:19.000Z,
    logOffTime: 2018-06-29T14:30:34.000Z,
    duration: 29835000,
    lockOutCount: 2,
    totalLockOutDuration: 1097000 },
  { user: '1817',
    logOnTime: 2018-06-29T18:51:45.000Z,
    logOffTime: 2018-06-29T20:45:25.000Z,
    duration: 6820000,
    lockOutCount: 0,
    totalLockOutDuration: 0 },
  { user: '1853',
    logOnTime: 2018-06-30T06:04:39.000Z,
    logOffTime: 2018-06-30T14:25:30.000Z,
    duration: 30051000,
    lockOutCount: 1,
    totalLockOutDuration: 197000 },
  { user: '1853',
    logOnTime: 2018-07-02T06:10:39.000Z,
    logOffTime: 2018-07-02T14:31:20.000Z,
    duration: 30041000,
    lockOutCount: 1,
    totalLockOutDuration: 760000 },
  { user: '1817',
    logOnTime: 2018-07-02T18:52:16.000Z,
    logOffTime: 2018-07-02T20:44:16.000Z,
    duration: 6720000,
    lockOutCount: 0,
    totalLockOutDuration: 0 },
  { user: '1853',
    logOnTime: 2018-07-03T06:12:23.000Z,
    logOffTime: 2018-07-03T14:30:34.000Z,
    duration: 29891000,
    lockOutCount: 1,
    totalLockOutDuration: 849000 },
  { user: '1817',
    logOnTime: 2018-07-03T18:55:42.000Z,
    logOffTime: 2018-07-03T20:44:47.000Z,
    duration: 6545000,
    lockOutCount: 0,
    totalLockOutDuration: 0 } ]
sending to api....
sessions:
[ { user: '1719',
    logOnTime: 2018-06-29T06:05:25.000Z,
    logOffTime: 2018-06-29T14:36:28.000Z,
    duration: 30663000,
    lockOutCount: 3,
    totalLockOutDuration: 706000 },
  { user: '1719',
    logOnTime: 2018-06-30T06:03:31.000Z,
    logOffTime: 2018-06-30T14:27:54.000Z,
    duration: 30263000,
    lockOutCount: 4,
    totalLockOutDuration: 1660000 },
  { user: '1719',
    logOnTime: 2018-07-03T06:07:13.000Z,
    logOffTime: 2018-07-03T14:30:34.000Z,
    duration: 30201000,
    lockOutCount: 2,
    totalLockOutDuration: 1849000 },
  { user: '1719',
    logOnTime: 2018-07-04T06:04:46.000Z,
    logOffTime: 2018-07-04T14:29:45.000Z,
    duration: 30299000,
    lockOutCount: 2,
    totalLockOutDuration: 936000 },
  { user: '1719',
    logOnTime: 2018-07-05T06:03:19.000Z,
    logOffTime: 2018-07-05T14:29:59.000Z,
    duration: 30400000,
    lockOutCount: 3,
    totalLockOutDuration: 1372000 } ]
sending to api....
sessions:
[ { user: '1859',
    logOnTime: 2018-06-29T06:07:36.000Z,
    logOffTime: 2018-06-29T14:29:28.000Z,
    duration: 30112000,
    lockOutCount: 2,
    totalLockOutDuration: 1725000 },
  { user: '1818',
    logOnTime: 2018-06-29T18:51:33.000Z,
    logOffTime: 2018-06-29T20:45:51.000Z,
    duration: 6858000,
    lockOutCount: 0,
    totalLockOutDuration: 0 },
  { user: '1859',
    logOnTime: 2018-06-30T06:11:35.000Z,
    logOffTime: 2018-06-30T14:17:20.000Z,
    duration: 29145000,
    lockOutCount: 6,
    totalLockOutDuration: 3394000 },
  { user: '1859',
    logOnTime: 2018-07-02T06:11:31.000Z,
    logOffTime: 2018-07-02T14:31:09.000Z,
    duration: 29978000,
    lockOutCount: 5,
    totalLockOutDuration: 1823000 },
  { user: '1818',
    logOnTime: 2018-07-02T18:52:26.000Z,
    logOffTime: 2018-07-02T20:44:30.000Z,
    duration: 6724000,
    lockOutCount: 0,
    totalLockOutDuration: 0 },
  { user: '1859',
    logOnTime: 2018-07-03T06:11:39.000Z,
    logOffTime: 2018-07-03T14:31:25.000Z,
    duration: 29986000,
    lockOutCount: 2,
    totalLockOutDuration: 1742000 },
  { user: '1818',
    logOnTime: 2018-07-03T18:54:27.000Z,
    logOffTime: 2018-07-03T20:45:25.000Z,
    duration: 6658000,
    lockOutCount: 0,
    totalLockOutDuration: 0 },
  { user: '1859',
    logOnTime: 2018-07-04T06:11:33.000Z,
    logOffTime: 2018-07-04T14:29:20.000Z,
    duration: 29867000,
    lockOutCount: 3,
    totalLockOutDuration: 1813000 } ]
sending to api....
sessions:
[ { user: '1675',
    logOnTime: 2018-06-29T10:05:38.000Z,
    logOffTime: 2018-06-29T14:30:17.000Z,
    duration: 15879000,
    lockOutCount: 1,
    totalLockOutDuration: 847000 },
  { user: '1820',
    logOnTime: 2018-06-29T18:51:21.000Z,
    logOffTime: 2018-06-29T20:45:11.000Z,
    duration: 6830000,
    lockOutCount: 0,
    totalLockOutDuration: 0 },
  { user: '1820',
    logOnTime: 2018-07-02T18:52:32.000Z,
    logOffTime: 2018-07-02T20:43:28.000Z,
    duration: 6656000,
    lockOutCount: 0,
    totalLockOutDuration: 0 },
  { user: '1675',
    logOnTime: 2018-07-03T06:17:53.000Z,
    logOffTime: 2018-07-03T14:30:21.000Z,
    duration: 29548000,
    lockOutCount: 2,
    totalLockOutDuration: 1675000 },
  { user: '1820',
    logOnTime: 2018-07-03T18:53:10.000Z,
    logOffTime: 2018-07-03T20:45:08.000Z,
    duration: 6718000,
    lockOutCount: 0,
    totalLockOutDuration: 0 },
  { user: '1675',
    logOnTime: 2018-07-04T06:12:16.000Z,
    logOffTime: 2018-07-04T14:30:51.000Z,
    duration: 29915000,
    lockOutCount: 2,
    totalLockOutDuration: 1827000 } ]
sending to api....
sessions:
[]
sending to api....
sessions:
[ { user: '1765',
    logOnTime: 2018-07-05T06:07:21.000Z,
    logOffTime: 2018-07-05T12:05:29.000Z,
    duration: 21488000,
    lockOutCount: 0,
    totalLockOutDuration: 0 } ]
sending to api....
sessions:
[]
sending to api....
sessions:
[]
sending to api....
sessions:
[]
sending to api....
sessions:
[]
sending to api....
sessions:
[]
sending to api....
sessions:
[]
sending to api....
sessions:
[ { user: '1228',
    logOnTime: 2018-07-05T15:19:47.000Z,
    logOffTime: 2018-07-05T15:21:00.000Z,
    duration: 73000,
    lockOutCount: 0,
    totalLockOutDuration: 0 } ]
sending to api....
sessions:
[]
sending to api....
sessions:
[ { user: '1449',
    logOnTime: 2018-06-29T06:08:26.000Z,
    logOffTime: 2018-06-29T11:39:23.000Z,
    duration: 19857000,
    lockOutCount: 0,
    totalLockOutDuration: 0 } ]
sending to api....
sessions:
[]
sending to api....
sessions:
[ { user: '1794',
    logOnTime: 2018-06-29T05:58:48.000Z,
    logOffTime: 2018-06-29T14:31:49.000Z,
    duration: 30781000,
    lockOutCount: 0,
    totalLockOutDuration: 0 },
  { user: '1576',
    logOnTime: 2018-06-30T06:01:46.000Z,
    logOffTime: 2018-06-30T12:04:39.000Z,
    duration: 21773000,
    lockOutCount: 0,
    totalLockOutDuration: 0 },
  { user: '1576',
    logOnTime: 2018-07-02T06:09:59.000Z,
    logOffTime: 2018-07-02T12:06:39.000Z,
    duration: 21400000,
    lockOutCount: 0,
    totalLockOutDuration: 0 },
  { user: '1576',
    logOnTime: 2018-07-03T06:06:10.000Z,
    logOffTime: 2018-07-03T12:05:51.000Z,
    duration: 21581000,
    lockOutCount: 0,
    totalLockOutDuration: 0 },
  { user: '1643',
    logOnTime: 2018-07-03T14:43:13.000Z,
    logOffTime: 2018-07-03T16:25:28.000Z,
    duration: 6135000,
    lockOutCount: 0,
    totalLockOutDuration: 0 } ]
sending to api....
sessions:
[ { user: '1196',
    logOnTime: 2018-07-03T09:38:48.000Z,
    logOffTime: 2018-07-03T13:28:50.000Z,
    duration: 13802000,
    lockOutCount: 0,
    totalLockOutDuration: 0 },
  { user: '1604',
    logOnTime: 2018-07-04T12:30:03.000Z,
    logOffTime: 2018-07-04T14:28:29.000Z,
    duration: 7106000,
    lockOutCount: 0,
    totalLockOutDuration: 0 } ]
sending to api....
sessions:
[]
sending to api....
sessions:
[ { user: '1592',
    logOnTime: 2018-07-04T12:28:48.000Z,
    logOffTime: 2018-07-04T14:28:03.000Z,
    duration: 7155000,
    lockOutCount: 0,
    totalLockOutDuration: 0 } ]
sending to api....
sessions:
[ { user: '1476',
    logOnTime: 2018-06-29T07:40:05.000Z,
    logOffTime: 2018-06-29T16:57:56.000Z,
    duration: 33471000,
    lockOutCount: 0,
    totalLockOutDuration: 0 },
  { user: '1476',
    logOnTime: 2018-06-30T07:30:55.000Z,
    logOffTime: 2018-06-30T15:30:05.000Z,
    duration: 28750000,
    lockOutCount: 0,
    totalLockOutDuration: 0 } ]
sending to api....
sessions:
[]
sending to api....
sessions:
[]
sending to api....
sessions:
[ { user: '1536',
    logOnTime: 2018-07-05T07:30:40.000Z,
    logOffTime: 2018-07-05T16:45:11.000Z,
    duration: 33271000,
    lockOutCount: 0,
    totalLockOutDuration: 0 } ]
sending to api....
sessions:
[]
sending to api....
sessions:
[ { user: '1450',
    logOnTime: 2018-06-29T07:40:34.000Z,
    logOffTime: 2018-06-29T16:54:16.000Z,
    duration: 33222000,
    lockOutCount: 0,
    totalLockOutDuration: 0 },
  { user: '1450',
    logOnTime: 2018-06-30T07:32:07.000Z,
    logOffTime: 2018-06-30T15:18:25.000Z,
    duration: 27978000,
    lockOutCount: 0,
    totalLockOutDuration: 0 },
  { user: '1450',
    logOnTime: 2018-07-02T07:41:30.000Z,
    logOffTime: 2018-07-02T16:59:33.000Z,
    duration: 33483000,
    lockOutCount: 0,
    totalLockOutDuration: 0 } ]
sending to api....
sessions:
[]
sending to api....
sessions:
[]
sending to api....
sessions:
[ { user: '1095',
    logOnTime: 2018-06-29T07:40:29.000Z,
    logOffTime: 2018-06-29T16:58:31.000Z,
    duration: 33482000,
    lockOutCount: 0,
    totalLockOutDuration: 0 } ]
sending to api....
sessions:
[]
sending to api....
sessions:
[]
sending to api....
sessions:
[]
sending to api....
sessions:
[]
sending to api....
sessions:
[]
sending to api....
sessions:
[]
sending to api....
sessions:
[]
sending to api....
sessions:
[]
sending to api....
sessions:
[]
sending to api....
sessions:
[]
sending to api....
sessions:
[]
sending to api....
sessions:
[]
sending to api....
sessions:
[ { user: '1133',
    logOnTime: 2018-06-29T10:34:16.000Z,
    logOffTime: 2018-06-29T12:02:20.000Z,
    duration: 5284000,
    lockOutCount: 0,
    totalLockOutDuration: 0 },
  { user: '1133',
    logOnTime: 2018-06-29T16:33:20.000Z,
    logOffTime: 2018-06-29T16:59:40.000Z,
    duration: 1580000,
    lockOutCount: 1,
    totalLockOutDuration: 544000 } ]
sending to api....
sessions:
[ { user: '1481',
    logOnTime: 2018-07-03T08:00:31.000Z,
    logOffTime: 2018-07-03T11:46:06.000Z,
    duration: 13535000,
    lockOutCount: 0,
    totalLockOutDuration: 0 },
  { user: '1481',
    logOnTime: 2018-07-03T13:29:36.000Z,
    logOffTime: 2018-07-03T16:33:20.000Z,
    duration: 11024000,
    lockOutCount: 0,
    totalLockOutDuration: 0 } ]
sending to api....
sessions:
[]
sending to api....
sessions:
[]
sending to api....
sessions:
[]
sending to api....
sessions:
[]
sending to api....
sessions:
[ { user: '1151',
    logOnTime: 2018-06-29T06:29:57.000Z,
    logOffTime: 2018-06-29T15:01:16.000Z,
    duration: 30679000,
    lockOutCount: 0,
    totalLockOutDuration: 0 },
  { user: '1151',
    logOnTime: 2018-06-30T06:21:15.000Z,
    logOffTime: 2018-06-30T14:12:08.000Z,
    duration: 28253000,
    lockOutCount: 0,
    totalLockOutDuration: 0 },
  { user: '1151',
    logOnTime: 2018-07-03T06:10:13.000Z,
    logOffTime: 2018-07-03T14:58:35.000Z,
    duration: 31702000,
    lockOutCount: 0,
    totalLockOutDuration: 0 },
  { user: '1151',
    logOnTime: 2018-07-04T13:06:49.000Z,
    logOffTime: 2018-07-04T14:33:05.000Z,
    duration: 5176000,
    lockOutCount: 0,
    totalLockOutDuration: 0 },
  { user: '1151',
    logOnTime: 2018-07-05T06:18:45.000Z,
    logOffTime: 2018-07-05T14:32:35.000Z,
    duration: 29630000,
    lockOutCount: 0,
    totalLockOutDuration: 0 } ]
sending to api....
sessions:
[]
sending to api....
sessions:
[ { user: '1444',
    logOnTime: 2018-07-03T18:56:14.000Z,
    logOffTime: 2018-07-03T19:55:59.000Z,
    duration: 3585000,
    lockOutCount: 0,
    totalLockOutDuration: 0 },
  { user: '1444',
    logOnTime: 2018-07-04T18:18:30.000Z,
    logOffTime: 2018-07-04T18:57:06.000Z,
    duration: 2316000,
    lockOutCount: 0,
    totalLockOutDuration: 0 },
  { user: '1171',
    logOnTime: 2018-07-05T09:37:09.000Z,
    logOffTime: 2018-07-05T11:21:13.000Z,
    duration: 6244000,
    lockOutCount: 1,
    totalLockOutDuration: 1437000 },
  { user: '1103',
    logOnTime: 2018-07-05T15:38:39.000Z,
    logOffTime: 2018-07-05T15:39:04.000Z,
    duration: 25000,
    lockOutCount: 0,
    totalLockOutDuration: 0 },
  { user: '1103',
    logOnTime: 2018-07-05T15:39:12.000Z,
    logOffTime: 2018-07-05T16:28:51.000Z,
    duration: 2979000,
    lockOutCount: 0,
    totalLockOutDuration: 0 } ]
